% $ biblatex auxiliary file $
% $ biblatex version 2.6 $
% Do not modify the above lines!
%
% This is an auxiliary file used by the 'biblatex' package.
% This file may safely be deleted. It will be recreated as
% required.
%
\begingroup
\makeatletter
\@ifundefined{ver@biblatex.sty}
  {\@latex@error
     {Missing 'biblatex' package}
     {The bibliography requires the 'biblatex' package.}
      \aftergroup\endinput}
  {}
\endgroup

\entry{altaf2011simultaneous}{article}{}
  \name{author}{4}{}{%
    {{}%
     {Altaf}{A.}%
     {M.U.}{M.}%
     {}{}%
     {}{}}%
    {{}%
     {Heemink}{H.}%
     {A.W.}{A.}%
     {}{}%
     {}{}}%
    {{}%
     {Verlaan}{V.}%
     {M.}{M.}%
     {}{}%
     {}{}}%
    {{}%
     {Hoteit}{H.}%
     {I.}{I.}%
     {}{}%
     {}{}}%
  }
  \list{publisher}{1}{%
    {Springer}%
  }
  \strng{namehash}{AM+1}
  \strng{fullhash}{AMHAVMHI1}
  \field{labelyear}{2011}
  \field{sortinit}{A}
  \field{number}{8}
  \field{pages}{1093\bibrangedash 1105}
  \field{title}{Simultaneous perturbation stochastic approximation for tidal
  models}
  \field{volume}{61}
  \field{journaltitle}{Ocean Dynamics}
  \field{year}{2011}
\endentry

\entry{antoniou2015w}{article}{}
  \name{author}{5}{}{%
    {{}%
     {Antoniou}{A.}%
     {Constantinos}{C.}%
     {}{}%
     {}{}}%
    {{}%
     {Azevedo}{A.}%
     {Carlos~Lima}{C.~L.}%
     {}{}%
     {}{}}%
    {{}%
     {Lu}{L.}%
     {Lu}{L.}%
     {}{}%
     {}{}}%
    {{}%
     {Pereira}{P.}%
     {Francisco}{F.}%
     {}{}%
     {}{}}%
    {{}%
     {Ben-Akiva}{B.-A.}%
     {Moshe}{M.}%
     {}{}%
     {}{}}%
  }
  \list{publisher}{1}{%
    {Elsevier}%
  }
  \strng{namehash}{AC+1}
  \strng{fullhash}{ACACLLLPFBAM1}
  \field{labelyear}{2015}
  \field{sortinit}{A}
  \field{pages}{129\bibrangedash 146}
  \field{title}{W-SPSA in practice: Approximation of weight matrices and
  calibration of traffic simulation models}
  \field{volume}{59}
  \field{journaltitle}{Transportation Research Part C: Emerging Technologies}
  \field{year}{2015}
\endentry

\entry{arango2003roms}{article}{}
  \name{author}{6}{}{%
    {{}%
     {Arango}{A.}%
     {H}{H}%
     {}{}%
     {}{}}%
    {{}%
     {Moore}{M.}%
     {Andrew~M}{A.~M.}%
     {}{}%
     {}{}}%
    {{}%
     {Miller}{M.}%
     {Arthur~J}{A.~J.}%
     {}{}%
     {}{}}%
    {{}%
     {Cornuelle}{C.}%
     {Bruce~D}{B.~D.}%
     {}{}%
     {}{}}%
    {{}%
     {Di~Lorenzo}{D.~L.}%
     {Emanuele}{E.}%
     {}{}%
     {}{}}%
    {{}%
     {Neilson}{N.}%
     {Doug~J}{D.~J.}%
     {}{}%
     {}{}}%
  }
  \strng{namehash}{AH+1}
  \strng{fullhash}{AHMAMMAJCBDDLENDJ1}
  \field{labelyear}{2003}
  \field{sortinit}{A}
  \field{title}{The ROMS tangent linear and adjoint models: a comprehensive
  ocean prediction and analysis system}
  \field{journaltitle}{IMCS, Rutgers Tech. Reports. Available online:<
  http://marine. rutgers. edu/po/Papers/roms\_adjoint. pdf}
  \field{year}{2003}
\endentry

\entry{armijo1966minimization}{article}{}
  \name{author}{1}{}{%
    {{}%
     {Armijo}{A.}%
     {L.}{L.}%
     {}{}%
     {}{}}%
  }
  \list{publisher}{1}{%
    {Mathematical Sciences Publishers}%
  }
  \strng{namehash}{AL1}
  \strng{fullhash}{AL1}
  \field{labelyear}{1966}
  \field{sortinit}{A}
  \field{number}{1}
  \field{pages}{1\bibrangedash 3}
  \field{title}{Minimization of functions having Lipschitz continuous first
  partial derivatives}
  \field{volume}{16}
  \field{journaltitle}{Pacific Journal of mathematics}
  \field{year}{1966}
\endentry

\entry{baldock2014impact}{article}{}
  \name{author}{5}{}{%
    {{}%
     {Baldock}{B.}%
     {TE}{T.}%
     {}{}%
     {}{}}%
    {{}%
     {Golshani}{G.}%
     {A}{A}%
     {}{}%
     {}{}}%
    {{}%
     {Callaghan}{C.}%
     {DP}{D.}%
     {}{}%
     {}{}}%
    {{}%
     {Saunders}{S.}%
     {MI}{M.}%
     {}{}%
     {}{}}%
    {{}%
     {Mumby}{M.}%
     {PJ}{P.}%
     {}{}%
     {}{}}%
  }
  \list{publisher}{1}{%
    {Elsevier}%
  }
  \strng{namehash}{BT+1}
  \strng{fullhash}{BTGACDSMMP1}
  \field{labelyear}{2014}
  \field{sortinit}{B}
  \field{number}{1}
  \field{pages}{155\bibrangedash 164}
  \field{title}{Impact of sea-level rise and coral mortality on the wave
  dynamics and wave forces on barrier reefs}
  \field{volume}{83}
  \field{journaltitle}{Marine pollution bulletin}
  \field{year}{2014}
\endentry

\entry{bennett1982open}{article}{}
  \name{author}{2}{}{%
    {{}%
     {Bennett}{B.}%
     {AF}{A.}%
     {}{}%
     {}{}}%
    {{}%
     {McIntosh}{M.}%
     {PC}{P.}%
     {}{}%
     {}{}}%
  }
  \strng{namehash}{BAMP1}
  \strng{fullhash}{BAMP1}
  \field{labelyear}{1982}
  \field{sortinit}{B}
  \field{number}{10}
  \field{pages}{1004\bibrangedash 1018}
  \field{title}{Open ocean modeling as an inverse problem: Tidal theory}
  \field{volume}{12}
  \field{journaltitle}{Journal of physical oceanography}
  \field{year}{1982}
\endentry

\entry{bhatnagar2015simultaneous}{article}{}
  \name{author}{2}{}{%
    {{}%
     {Bhatnagar}{B.}%
     {Shalabh}{S.}%
     {}{}%
     {}{}}%
    {{}%
     {Prashanth}{P.}%
     {LA}{L.}%
     {}{}%
     {}{}}%
  }
  \list{publisher}{1}{%
    {Springer}%
  }
  \strng{namehash}{BSPL1}
  \strng{fullhash}{BSPL1}
  \field{labelyear}{2015}
  \field{sortinit}{B}
  \field{number}{2}
  \field{pages}{621\bibrangedash 643}
  \field{title}{Simultaneous perturbation Newton algorithms for simulation
  optimization}
  \field{volume}{164}
  \field{journaltitle}{Journal of Optimization Theory and Applications}
  \field{year}{2015}
\endentry

\entry{blum2009data}{incollection}{}
  \name{author}{3}{}{%
    {{}%
     {Blum}{B.}%
     {J.}{J.}%
     {}{}%
     {}{}}%
    {{}%
     {Le~Dimet}{L.~D.}%
     {F.-X.}{F.-X.}%
     {}{}%
     {}{}}%
    {{}%
     {Navon}{N.}%
     {I.M.}{I.}%
     {}{}%
     {}{}}%
  }
  \list{publisher}{1}{%
    {Elsevier}%
  }
  \strng{namehash}{BJLDFXNI1}
  \strng{fullhash}{BJLDFXNI1}
  \field{labelyear}{2009}
  \field{sortinit}{B}
  \field{booktitle}{Handbook of numerical analysis}
  \field{pages}{385\bibrangedash 441}
  \field{title}{Data assimilation for geophysical fluids}
  \field{volume}{14}
  \field{year}{2009}
\endentry

\entry{bogden1996open}{article}{}
  \name{author}{3}{}{%
    {{}%
     {Bogden}{B.}%
     {Philip~S}{P.~S.}%
     {}{}%
     {}{}}%
    {{}%
     {Malanotte-Rizzoli}{M.-R.}%
     {Paola}{P.}%
     {}{}%
     {}{}}%
    {{}%
     {Signell}{S.}%
     {Rich}{R.}%
     {}{}%
     {}{}}%
  }
  \list{publisher}{1}{%
    {Wiley Online Library}%
  }
  \strng{namehash}{BPSMRPSR1}
  \strng{fullhash}{BPSMRPSR1}
  \field{labelyear}{1996}
  \field{sortinit}{B}
  \field{number}{C3}
  \field{pages}{6487\bibrangedash 6500}
  \field{title}{Open-ocean boundary conditions from interior data: Local and
  remote forcing of Massachusetts Bay}
  \field{volume}{101}
  \field{journaltitle}{Journal of Geophysical Research: Oceans}
  \field{year}{1996}
\endentry

\entry{bonneton2007tidal}{article}{}
  \name{author}{5}{}{%
    {{}%
     {Bonneton}{B.}%
     {Philippe}{P.}%
     {}{}%
     {}{}}%
    {{}%
     {Lefebvre}{L.}%
     {Jean-Pierre}{J.-P.}%
     {}{}%
     {}{}}%
    {{}%
     {Bretel}{B.}%
     {Patrice}{P.}%
     {}{}%
     {}{}}%
    {{}%
     {Ouillon}{O.}%
     {Sylvain}{S.}%
     {}{}%
     {}{}}%
    {{}%
     {Douillet}{D.}%
     {Pascal}{P.}%
     {}{}%
     {}{}}%
  }
  \list{publisher}{1}{%
    {JSTOR}%
  }
  \strng{namehash}{BP+1}
  \strng{fullhash}{BPLJPBPOSDP1}
  \field{labelyear}{2007}
  \field{sortinit}{B}
  \field{pages}{762\bibrangedash 766}
  \field{title}{Tidal modulation of wave-setup and wave-induced currents on the
  Abor{\'e} coral reef, New Caledonia}
  \field{journaltitle}{Journal of Coastal Research}
  \field{year}{2007}
\endentry

\entry{bourret2005investigation}{article}{}
  \name{author}{3}{}{%
    {{}%
     {Bourret}{B.}%
     {A}{A}%
     {}{}%
     {}{}}%
    {{}%
     {Devenon}{D.}%
     {J-L}{J.-L.}%
     {}{}%
     {}{}}%
    {{}%
     {Chevalier}{C.}%
     {Christ{\`e}le}{C.}%
     {}{}%
     {}{}}%
  }
  \list{publisher}{1}{%
    {Elsevier}%
  }
  \strng{namehash}{BADJLCC1}
  \strng{fullhash}{BADJLCC1}
  \field{labelyear}{2005}
  \field{sortinit}{B}
  \field{number}{11}
  \field{pages}{1353\bibrangedash 1373}
  \field{title}{Investigation on passive open boundary conditions adapted to
  the conjunction of strong currents, standing tidal wave and high
  stratification: application to the French Guiana Continental Shelf}
  \field{volume}{25}
  \field{journaltitle}{Continental shelf research}
  \field{year}{2005}
\endentry

\entry{boutet2015estimation}{article}{}
  \name{author}{1}{}{%
    {{}%
     {Boutet}{B.}%
     {M.}{M.}%
     {}{}%
     {}{}}%
  }
  \strng{namehash}{BM1}
  \strng{fullhash}{BM1}
  \field{labelyear}{2015}
  \field{sortinit}{B}
  \field{title}{Estimation du frottement sur le fond pour la mod{\'e}lisation
  de la mar{\'e}e barotrope}
  \field{year}{2015}
\endentry

\entry{boutet2015bottom}{inproceedings}{}
  \name{author}{4}{}{%
    {{}%
     {Boutet}{B.}%
     {M.}{M.}%
     {}{}%
     {}{}}%
    {{}%
     {Lathuili{\`e}re}{L.}%
     {C.}{C.}%
     {}{}%
     {}{}}%
    {{}%
     {Hoang}{H.}%
     {H.S.}{H.}%
     {}{}%
     {}{}}%
    {{}%
     {Baraille}{B.}%
     {R.}{R.}%
     {}{}%
     {}{}}%
  }
  \strng{namehash}{BM+1}
  \strng{fullhash}{BMLCHHBR1}
  \field{labelyear}{2015}
  \field{sortinit}{B}
  \field{booktitle}{EGU General Assembly Conference Abstracts}
  \field{title}{Bottom friction optimization for a better barotropic tide
  modelling}
  \field{volume}{17}
  \field{year}{2015}
\endentry

\entry{chau2015overview}{incollection}{}
  \name{author}{2}{}{%
    {{}%
     {Chau}{C.}%
     {Marie}{M.}%
     {}{}%
     {}{}}%
    {{}%
     {Fu}{F.}%
     {Michael~C}{M.~C.}%
     {}{}%
     {}{}}%
  }
  \list{publisher}{1}{%
    {Springer}%
  }
  \strng{namehash}{CMFMC1}
  \strng{fullhash}{CMFMC1}
  \field{labelyear}{2015}
  \field{sortinit}{C}
  \field{booktitle}{Handbook of Simulation Optimization}
  \field{pages}{149\bibrangedash 178}
  \field{title}{An overview of stochastic approximation}
  \field{year}{2015}
\endentry

\entry{chevalier2015hydrodynamics}{article}{}
  \name{author}{4}{}{%
    {{}%
     {Chevalier}{C.}%
     {Cristele}{C.}%
     {}{}%
     {}{}}%
    {{}%
     {Devenon}{D.}%
     {Jean-Luc}{J.-L.}%
     {}{}%
     {}{}}%
    {{}%
     {Rougier}{R.}%
     {Gilles}{G.}%
     {}{}%
     {}{}}%
    {{}%
     {Blanchot}{B.}%
     {Jean}{J.}%
     {}{}%
     {}{}}%
  }
  \list{publisher}{2}{%
    {The Coastal Education}%
    {Research Foundation}%
  }
  \strng{namehash}{CC+1}
  \strng{fullhash}{CCDJLRGBJ1}
  \field{labelyear}{2015}
  \field{extrayear}{1}
  \field{sortinit}{C}
  \field{number}{6}
  \field{pages}{1403\bibrangedash 1416}
  \field{title}{Hydrodynamics of the Toliara reef lagoon (Madagascar): example
  of a lagoon influenced by waves and tides}
  \field{volume}{31}
  \field{journaltitle}{Journal of Coastal Research}
  \field{year}{2015}
\endentry

\entry{chevalier2015impact}{article}{}
  \name{author}{6}{}{%
    {{}%
     {Chevalier}{C.}%
     {Cristele}{C.}%
     {}{}%
     {}{}}%
    {{}%
     {Sous}{S.}%
     {Damien}{D.}%
     {}{}%
     {}{}}%
    {{}%
     {Devenon}{D.}%
     {Jean-Luc}{J.-L.}%
     {}{}%
     {}{}}%
    {{}%
     {Pagano}{P.}%
     {Marc}{M.}%
     {}{}%
     {}{}}%
    {{}%
     {Rougier}{R.}%
     {Gilles}{G.}%
     {}{}%
     {}{}}%
    {{}%
     {Blanchot}{B.}%
     {Jean}{J.}%
     {}{}%
     {}{}}%
  }
  \list{publisher}{1}{%
    {Springer}%
  }
  \strng{namehash}{CC+1}
  \strng{fullhash}{CCSDDJLPMRGBJ1}
  \field{labelyear}{2015}
  \field{extrayear}{2}
  \field{sortinit}{C}
  \field{number}{11}
  \field{pages}{1509\bibrangedash 1534}
  \field{title}{Impact of cross-reef water fluxes on lagoon dynamics: a simple
  parameterization for coral lagoon circulation model, with application to the
  Ouano Lagoon, New Caledonia}
  \field{volume}{65}
  \field{journaltitle}{Ocean Dynamics}
  \field{year}{2015}
\endentry

\entry{chirayath2016drones}{article}{}
  \name{author}{2}{}{%
    {{}%
     {Chirayath}{C.}%
     {Ved}{V.}%
     {}{}%
     {}{}}%
    {{}%
     {Earle}{E.}%
     {Sylvia~A}{S.~A.}%
     {}{}%
     {}{}}%
  }
  \list{publisher}{1}{%
    {Wiley Online Library}%
  }
  \strng{namehash}{CVESA1}
  \strng{fullhash}{CVESA1}
  \field{labelyear}{2016}
  \field{sortinit}{C}
  \field{pages}{237\bibrangedash 250}
  \field{title}{Drones that see through waves--preliminary results from
  airborne fluid lensing for centimetre-scale aquatic conservation}
  \field{volume}{26}
  \field{journaltitle}{Aquatic Conservation: Marine and Freshwater Ecosystems}
  \field{year}{2016}
\endentry

\entry{cuif2014wind}{article}{}
  \name{author}{8}{}{%
    {{}%
     {Cuif}{C.}%
     {Marion}{M.}%
     {}{}%
     {}{}}%
    {{}%
     {Kaplan}{K.}%
     {David~Michael}{D.~M.}%
     {}{}%
     {}{}}%
    {{}%
     {Lef{\`e}vre}{L.}%
     {J{\'e}r{\^o}me}{J.}%
     {}{}%
     {}{}}%
    {{}%
     {Faure}{F.}%
     {Vincent~Martin}{V.~M.}%
     {}{}%
     {}{}}%
    {{}%
     {Caillaud}{C.}%
     {Matthieu}{M.}%
     {}{}%
     {}{}}%
    {{}%
     {Verley}{V.}%
     {Philippe}{P.}%
     {}{}%
     {}{}}%
    {{}%
     {Vigliola}{V.}%
     {Laurent}{L.}%
     {}{}%
     {}{}}%
    {{}%
     {Lett}{L.}%
     {Christophe}{C.}%
     {}{}%
     {}{}}%
  }
  \list{publisher}{1}{%
    {Elsevier}%
  }
  \strng{namehash}{CM+1}
  \strng{fullhash}{CMKDMLJFVMCMVPVLLC1}
  \field{labelyear}{2014}
  \field{sortinit}{C}
  \field{pages}{105\bibrangedash 115}
  \field{title}{Wind-induced variability in larval retention in a coral reef
  system: A biophysical modelling study in the South-West Lagoon of New
  Caledonia}
  \field{volume}{122}
  \field{journaltitle}{Progress in Oceanography}
  \field{year}{2014}
\endentry

\entry{davies1994examining}{article}{}
  \name{author}{2}{}{%
    {{}%
     {Davies}{D.}%
     {AM}{A.}%
     {}{}%
     {}{}}%
    {{}%
     {Lawrence}{L.}%
     {J}{J}%
     {}{}%
     {}{}}%
  }
  \strng{namehash}{DALJ1}
  \strng{fullhash}{DALJ1}
  \field{labelyear}{1994}
  \field{sortinit}{D}
  \field{number}{12}
  \field{pages}{2441\bibrangedash 2460}
  \field{title}{Examining the influence of wind and wind wave turbulence on
  tidal currents, using a three-dimensional hydrodynamic model including
  wave--current interaction}
  \field{volume}{24}
  \field{journaltitle}{Journal of Physical Oceanography}
  \field{year}{1994}
\endentry

\entry{devenon1990optimal}{article}{}
  \name{author}{1}{}{%
    {{}%
     {Devenon}{D.}%
     {Jean-Luc}{J.-L.}%
     {}{}%
     {}{}}%
  }
  \strng{namehash}{DJL1}
  \strng{fullhash}{DJL1}
  \field{labelyear}{1990}
  \field{sortinit}{D}
  \field{number}{2}
  \field{pages}{269\bibrangedash 284}
  \field{title}{Optimal control theory applied to an objective analysis of a
  tidal current mapping by HF radar}
  \field{volume}{7}
  \field{journaltitle}{Journal of Atmospheric and Oceanic Technology}
  \field{year}{1990}
\endentry

\entry{dollar1982wave}{article}{}
  \name{author}{1}{}{%
    {{}%
     {Dollar}{D.}%
     {SJ}{S.}%
     {}{}%
     {}{}}%
  }
  \list{publisher}{1}{%
    {Springer}%
  }
  \strng{namehash}{DS1}
  \strng{fullhash}{DS1}
  \field{labelyear}{1982}
  \field{sortinit}{D}
  \field{number}{2}
  \field{pages}{71\bibrangedash 81}
  \field{title}{Wave stress and coral community structure in Hawaii}
  \field{volume}{1}
  \field{journaltitle}{Coral Reefs}
  \field{year}{1982}
\endentry

\entry{douillet1998tidal}{article}{}
  \name{author}{1}{}{%
    {{}%
     {Douillet}{D.}%
     {Pascal}{P.}%
     {}{}%
     {}{}}%
  }
  \list{publisher}{1}{%
    {Elsevier}%
  }
  \strng{namehash}{DP1}
  \strng{fullhash}{DP1}
  \field{labelyear}{1998}
  \field{sortinit}{D}
  \field{number}{1}
  \field{pages}{69\bibrangedash 79}
  \field{title}{Tidal dynamics of the south-west lagoon of New Caledonia:
  observations and 2D numerical modelling}
  \field{volume}{21}
  \field{journaltitle}{Oceanologica Acta}
  \field{year}{1998}
\endentry

\entry{dronkers1982some}{article}{}
  \name{author}{2}{}{%
    {{}%
     {Dronkers}{D.}%
     {J}{J}%
     {}{}%
     {}{}}%
    {{}%
     {Zimmerman}{Z.}%
     {JTF}{J.}%
     {}{}%
     {}{}}%
  }
  \list{publisher}{1}{%
    {Gauthier-Villars}%
  }
  \strng{namehash}{DJZJ1}
  \strng{fullhash}{DJZJ1}
  \field{labelyear}{1982}
  \field{sortinit}{D}
  \field{title}{Some principles of mixing in tidal lagoons}
  \field{journaltitle}{Oceanologica Acta, Special issue}
  \field{year}{1982}
\endentry

\entry{dyakonova2018bottom}{inproceedings}{}
  \name{author}{2}{}{%
    {{}%
     {Dyakonova}{D.}%
     {Tatyana}{T.}%
     {}{}%
     {}{}}%
    {{}%
     {Khoperskov}{K.}%
     {Alexander}{A.}%
     {}{}%
     {}{}}%
  }
  \list{organization}{1}{%
    {IOP Publishing}%
  }
  \strng{namehash}{DTKA1}
  \strng{fullhash}{DTKA1}
  \field{labelyear}{2018}
  \field{sortinit}{D}
  \field{booktitle}{Journal of Physics: Conference Series}
  \field{number}{1}
  \field{pages}{012032}
  \field{title}{Bottom friction models for shallow water equations: Manning’s
  roughness coefficient and small-scale bottom heterogeneity}
  \field{volume}{973}
  \field{year}{2018}
\endentry

\entry{egbert1994topex}{article}{}
  \name{author}{3}{}{%
    {{}%
     {Egbert}{E.}%
     {Gary~D}{G.~D.}%
     {}{}%
     {}{}}%
    {{}%
     {Bennett}{B.}%
     {Andrew~F}{A.~F.}%
     {}{}%
     {}{}}%
    {{}%
     {Foreman}{F.}%
     {Michael~GG}{M.~G.}%
     {}{}%
     {}{}}%
  }
  \list{publisher}{1}{%
    {Wiley Online Library}%
  }
  \strng{namehash}{EGDBAFFMG1}
  \strng{fullhash}{EGDBAFFMG1}
  \field{labelyear}{1994}
  \field{sortinit}{E}
  \field{number}{C12}
  \field{pages}{24821\bibrangedash 24852}
  \field{title}{TOPEX/POSEIDON tides estimated using a global inverse model}
  \field{volume}{99}
  \field{journaltitle}{Journal of Geophysical Research: Oceans}
  \field{year}{1994}
\endentry

\entry{egbert2002efficient}{article}{}
  \name{author}{2}{}{%
    {{}%
     {Egbert}{E.}%
     {Gary~D}{G.~D.}%
     {}{}%
     {}{}}%
    {{}%
     {Erofeeva}{E.}%
     {Svetlana~Y}{S.~Y.}%
     {}{}%
     {}{}}%
  }
  \strng{namehash}{EGDESY1}
  \strng{fullhash}{EGDESY1}
  \field{labelyear}{2002}
  \field{sortinit}{E}
  \field{number}{2}
  \field{pages}{183\bibrangedash 204}
  \field{title}{Efficient inverse modeling of barotropic ocean tides}
  \field{volume}{19}
  \field{journaltitle}{Journal of Atmospheric and Oceanic Technology}
  \field{year}{2002}
\endentry

\entry{erofeeva2018tpxo9}{inproceedings}{}
  \name{author}{2}{}{%
    {{}%
     {Erofeeva}{E.}%
     {Svetlana}{S.}%
     {}{}%
     {}{}}%
    {{}%
     {Egbert}{E.}%
     {Gary~D}{G.~D.}%
     {}{}%
     {}{}}%
  }
  \list{organization}{1}{%
    {AGU}%
  }
  \strng{namehash}{ESEGD1}
  \strng{fullhash}{ESEGD1}
  \field{labelyear}{2018}
  \field{sortinit}{E}
  \field{booktitle}{2018 Ocean Sciences Meeting}
  \field{title}{TPXO9--a new global tidal model in TPXO series}
  \field{year}{2018}
\endentry

\entry{falter2004mass}{article}{}
  \name{author}{3}{}{%
    {{}%
     {Falter}{F.}%
     {James~L}{J.~L.}%
     {}{}%
     {}{}}%
    {{}%
     {Atkinson}{A.}%
     {Marlin~J}{M.~J.}%
     {}{}%
     {}{}}%
    {{}%
     {Merrifield}{M.}%
     {Mark~A}{M.~A.}%
     {}{}%
     {}{}}%
  }
  \list{publisher}{1}{%
    {Wiley Online Library}%
  }
  \strng{namehash}{FJLAMJMMA1}
  \strng{fullhash}{FJLAMJMMA1}
  \field{labelyear}{2004}
  \field{sortinit}{F}
  \field{number}{5}
  \field{pages}{1820\bibrangedash 1831}
  \field{title}{Mass-transfer limitation of nutrient uptake by a wave-dominated
  reef flat community}
  \field{volume}{49}
  \field{journaltitle}{Limnology and Oceanography}
  \field{year}{2004}
\endentry

\entry{faure2010modelling}{article}{}
  \name{author}{4}{}{%
    {{}%
     {Faure}{F.}%
     {Vincent}{V.}%
     {}{}%
     {}{}}%
    {{}%
     {Pinazo}{P.}%
     {Christel}{C.}%
     {}{}%
     {}{}}%
    {{}%
     {Torr{\'e}ton}{T.}%
     {Jean-Pascal}{J.-P.}%
     {}{}%
     {}{}}%
    {{}%
     {Douillet}{D.}%
     {Pascal}{P.}%
     {}{}%
     {}{}}%
  }
  \list{publisher}{1}{%
    {Elsevier}%
  }
  \strng{namehash}{FV+1}
  \strng{fullhash}{FVPCTJPDP1}
  \field{labelyear}{2010}
  \field{sortinit}{F}
  \field{number}{7-12}
  \field{pages}{480\bibrangedash 502}
  \field{title}{Modelling the spatial and temporal variability of the SW lagoon
  of New Caledonia II: realistic 3D simulations compared with in situ data}
  \field{volume}{61}
  \field{journaltitle}{Marine pollution bulletin}
  \field{year}{2010}
\endentry

\entry{feng2016storm}{article}{}
  \name{author}{3}{}{%
    {{}%
     {Feng}{F.}%
     {Xi}{X.}%
     {}{}%
     {}{}}%
    {{}%
     {Olabarrieta}{O.}%
     {Maitane}{M.}%
     {}{}%
     {}{}}%
    {{}%
     {Valle-Levinson}{V.-L.}%
     {Arnoldo}{A.}%
     {}{}%
     {}{}}%
  }
  \list{publisher}{1}{%
    {Elsevier}%
  }
  \strng{namehash}{FXOMVLA1}
  \strng{fullhash}{FXOMVLA1}
  \field{labelyear}{2016}
  \field{sortinit}{F}
  \field{pages}{54\bibrangedash 71}
  \field{title}{Storm-induced semidiurnal perturbations to surges on the US
  Eastern Seaboard}
  \field{volume}{114}
  \field{journaltitle}{Continental Shelf Research}
  \field{year}{2016}
\endentry

\entry{foreman2009versatile}{article}{}
  \name{author}{3}{}{%
    {{}%
     {Foreman}{F.}%
     {Mike~GG}{M.~G.}%
     {}{}%
     {}{}}%
    {{}%
     {Cherniawsky}{C.}%
     {JY}{J.}%
     {}{}%
     {}{}}%
    {{}%
     {Ballantyne}{B.}%
     {VA}{V.}%
     {}{}%
     {}{}}%
  }
  \strng{namehash}{FMGCJBV1}
  \strng{fullhash}{FMGCJBV1}
  \field{labelyear}{2009}
  \field{sortinit}{F}
  \field{number}{4}
  \field{pages}{806\bibrangedash 817}
  \field{title}{Versatile harmonic tidal analysis: Improvements and
  applications}
  \field{volume}{26}
  \field{journaltitle}{Journal of Atmospheric and Oceanic technology}
  \field{year}{2009}
\endentry

\entry{fringer2019future}{article}{}
  \name{author}{5}{}{%
    {{}%
     {Fringer}{F.}%
     {Oliver~B}{O.~B.}%
     {}{}%
     {}{}}%
    {{}%
     {Dawson}{D.}%
     {Clint~N}{C.~N.}%
     {}{}%
     {}{}}%
    {{}%
     {He}{H.}%
     {Ruoying}{R.}%
     {}{}%
     {}{}}%
    {{}%
     {Ralston}{R.}%
     {David~K}{D.~K.}%
     {}{}%
     {}{}}%
    {{}%
     {Zhang}{Z.}%
     {Y~Joseph}{Y.~J.}%
     {}{}%
     {}{}}%
  }
  \list{publisher}{1}{%
    {Elsevier}%
  }
  \strng{namehash}{FOB+1}
  \strng{fullhash}{FOBDCNHRRDKZYJ1}
  \field{labelyear}{2019}
  \field{sortinit}{F}
  \field{pages}{101458}
  \field{title}{The future of coastal and estuarine modeling: Findings from a
  workshop}
  \field{journaltitle}{Ocean Modelling}
  \field{year}{2019}
\endentry

\entry{fuchs2012modelling}{article}{}
  \name{author}{6}{}{%
    {{}%
     {Fuchs}{F.}%
     {Rosalie}{R.}%
     {}{}%
     {}{}}%
    {{}%
     {Dupouy}{D.}%
     {Cecile}{C.}%
     {}{}%
     {}{}}%
    {{}%
     {Douillet}{D.}%
     {Pascal}{P.}%
     {}{}%
     {}{}}%
    {{}%
     {Caillaud}{C.}%
     {Matthieu}{M.}%
     {}{}%
     {}{}}%
    {{}%
     {Mangin}{M.}%
     {Antoine}{A.}%
     {}{}%
     {}{}}%
    {{}%
     {Pinazo}{P.}%
     {Christel}{C.}%
     {}{}%
     {}{}}%
  }
  \list{publisher}{1}{%
    {Elsevier}%
  }
  \strng{namehash}{FR+1}
  \strng{fullhash}{FRDCDPCMMAPC1}
  \field{labelyear}{2012}
  \field{sortinit}{F}
  \field{number}{8}
  \field{pages}{1596\bibrangedash 1613}
  \field{title}{Modelling the impact of a La Ni{\~n}a event on a South West
  Pacific Lagoon}
  \field{volume}{64}
  \field{journaltitle}{Marine pollution bulletin}
  \field{year}{2012}
\endentry

\entry{ganachaud2010observed}{article}{}
  \name{author}{9}{}{%
    {{}%
     {Ganachaud}{G.}%
     {Alexandre}{A.}%
     {}{}%
     {}{}}%
    {{}%
     {Vega}{V.}%
     {Andr{\'e}s}{A.}%
     {}{}%
     {}{}}%
    {{}%
     {Rodier}{R.}%
     {Martine}{M.}%
     {}{}%
     {}{}}%
    {{}%
     {Dupouy}{D.}%
     {C{\'e}cile}{C.}%
     {}{}%
     {}{}}%
    {{}%
     {Maes}{M.}%
     {Christophe}{C.}%
     {}{}%
     {}{}}%
    {{}%
     {Marchesiello}{M.}%
     {Patrick}{P.}%
     {}{}%
     {}{}}%
    {{}%
     {Eldin}{E.}%
     {Gerard}{G.}%
     {}{}%
     {}{}}%
    {{}%
     {Ridgway}{R.}%
     {Ken}{K.}%
     {}{}%
     {}{}}%
    {{}%
     {Le~Borgne}{L.~B.}%
     {Robert}{R.}%
     {}{}%
     {}{}}%
  }
  \list{publisher}{1}{%
    {Elsevier}%
  }
  \strng{namehash}{GA+1}
  \strng{fullhash}{GAVARMDCMCMPEGRKLBR1}
  \field{labelyear}{2010}
  \field{sortinit}{G}
  \field{number}{7-12}
  \field{pages}{449\bibrangedash 464}
  \field{title}{Observed impact of upwelling events on water properties and
  biological activity off the southwest coast of New Caledonia}
  \field{volume}{61}
  \field{journaltitle}{Marine Pollution Bulletin}
  \field{year}{2010}
\endentry

\entry{giering1998recipes}{article}{}
  \name{author}{2}{}{%
    {{}%
     {Giering}{G.}%
     {Ralf}{R.}%
     {}{}%
     {}{}}%
    {{}%
     {Kaminski}{K.}%
     {Thomas}{T.}%
     {}{}%
     {}{}}%
  }
  \list{publisher}{1}{%
    {ACM New York, NY, USA}%
  }
  \strng{namehash}{GRKT1}
  \strng{fullhash}{GRKT1}
  \field{labelyear}{1998}
  \field{sortinit}{G}
  \field{number}{4}
  \field{pages}{437\bibrangedash 474}
  \field{title}{Recipes for adjoint code construction}
  \field{volume}{24}
  \field{journaltitle}{ACM Transactions on Mathematical Software (TOMS)}
  \field{year}{1998}
\endentry

\entry{godin1994numerical}{article}{}
  \name{author}{2}{}{%
    {{}%
     {Godin}{G.}%
     {Gabriel}{G.}%
     {}{}%
     {}{}}%
    {{}%
     {Mart{\'\i}nez}{M.}%
     {Antonio}{A.}%
     {}{}%
     {}{}}%
  }
  \list{publisher}{1}{%
    {Elsevier}%
  }
  \strng{namehash}{GGMA1}
  \strng{fullhash}{GGMA1}
  \field{labelyear}{1994}
  \field{sortinit}{G}
  \field{number}{7-8}
  \field{pages}{723\bibrangedash 748}
  \field{title}{Numerical experiments to investigate the effects of quadratic
  friction on the propagation of tides in a channel}
  \field{volume}{14}
  \field{journaltitle}{Continental Shelf Research}
  \field{year}{1994}
\endentry

\entry{gourlay2005wave}{article}{}
  \name{author}{2}{}{%
    {{}%
     {Gourlay}{G.}%
     {Michael~R}{M.~R.}%
     {}{}%
     {}{}}%
    {{}%
     {Colleter}{C.}%
     {Gildas}{G.}%
     {}{}%
     {}{}}%
  }
  \list{publisher}{1}{%
    {Elsevier}%
  }
  \strng{namehash}{GMRCG1}
  \strng{fullhash}{GMRCG1}
  \field{labelyear}{2005}
  \field{sortinit}{G}
  \field{number}{4}
  \field{pages}{353\bibrangedash 387}
  \field{title}{Wave-generated flow on coral reefs—an analysis for
  two-dimensional horizontal reef-tops with steep faces}
  \field{volume}{52}
  \field{journaltitle}{Coastal engineering}
  \field{year}{2005}
\endentry

\entry{hasselmann1971mass}{article}{}
  \name{author}{1}{}{%
    {{}%
     {Hasselmann}{H.}%
     {Klaus}{K.}%
     {}{}%
     {}{}}%
  }
  \list{publisher}{1}{%
    {Cambridge University Press}%
  }
  \strng{namehash}{HK1}
  \strng{fullhash}{HK1}
  \field{labelyear}{1971}
  \field{sortinit}{H}
  \field{number}{1}
  \field{pages}{189\bibrangedash 205}
  \field{title}{On the mass and momentum transfer between short gravity waves
  and larger-scale motions}
  \field{volume}{50}
  \field{journaltitle}{Journal of Fluid Mechanics}
  \field{year}{1971}
\endentry

\entry{he2006barotropic}{article}{}
  \name{author}{2}{}{%
    {{}%
     {He}{H.}%
     {Ruoying}{R.}%
     {}{}%
     {}{}}%
    {{}%
     {Wilkin}{W.}%
     {John~L}{J.~L.}%
     {}{}%
     {}{}}%
  }
  \list{publisher}{1}{%
    {Wiley Online Library}%
  }
  \strng{namehash}{HRWJL1}
  \strng{fullhash}{HRWJL1}
  \field{labelyear}{2006}
  \field{sortinit}{H}
  \field{number}{C8}
  \field{title}{Barotropic tides on the southeast New England shelf: A view
  from a hybrid data assimilative modeling approach}
  \field{volume}{111}
  \field{journaltitle}{Journal of Geophysical Research: Oceans}
  \field{year}{2006}
\endentry

\entry{hearn1999wave}{article}{}
  \name{author}{1}{}{%
    {{}%
     {Hearn}{H.}%
     {Clifford~J}{C.~J.}%
     {}{}%
     {}{}}%
  }
  \list{publisher}{1}{%
    {Wiley Online Library}%
  }
  \strng{namehash}{HCJ1}
  \strng{fullhash}{HCJ1}
  \field{labelyear}{1999}
  \field{sortinit}{H}
  \field{number}{C12}
  \field{pages}{30007\bibrangedash 30019}
  \field{title}{Wave-breaking hydrodynamics within coral reef systems and the
  effect of changing relative sea level}
  \field{volume}{104}
  \field{journaltitle}{Journal of Geophysical Research: Oceans}
  \field{year}{1999}
\endentry

\entry{hoang2014low}{article}{}
  \name{author}{2}{}{%
    {{}%
     {Hoang}{H.}%
     {Hong~Son}{H.~S.}%
     {}{}%
     {}{}}%
    {{}%
     {Baraille}{B.}%
     {Remy}{R.}%
     {}{}%
     {}{}}%
  }
  \list{publisher}{1}{%
    {Elsevier}%
  }
  \strng{namehash}{HHSBR1}
  \strng{fullhash}{HHSBR1}
  \field{labelyear}{2014}
  \field{sortinit}{H}
  \field{number}{3}
  \field{pages}{3256\bibrangedash 3261}
  \field{title}{A low cost filter design for state and parameter estimation in
  very high dimensional systems}
  \field{volume}{47}
  \field{journaltitle}{IFAC Proceedings Volumes}
  \field{year}{2014}
\endentry

\entry{hoang2011efficiency}{article}{}
  \name{author}{2}{}{%
    {{}%
     {Hoang}{H.}%
     {H.S.}{H.}%
     {}{}%
     {}{}}%
    {{}%
     {Baraille}{B.}%
     {R.}{R.}%
     {}{}%
     {}{}}%
  }
  \strng{namehash}{HHBR1}
  \strng{fullhash}{HHBR1}
  \field{labelyear}{2011}
  \field{sortinit}{H}
  \field{pages}{948\bibrangedash 962}
  \field{title}{On efficiency of simultaneous perturbation stochastic
  approximation method for implementation of an adaptive filter}
  \field{volume}{2}
  \field{journaltitle}{Computer Techniques and Applications}
  \field{year}{2011}
\endentry

\entry{hsu1999procedure}{article}{}
  \name{author}{4}{}{%
    {{}%
     {Hsu}{H.}%
     {Ming-Hsi}{M.-H.}%
     {}{}%
     {}{}}%
    {{}%
     {Kuo}{K.}%
     {Albert~Y}{A.~Y.}%
     {}{}%
     {}{}}%
    {{}%
     {Kuo}{K.}%
     {Jan-Tai}{J.-T.}%
     {}{}%
     {}{}}%
    {{}%
     {Liu}{L.}%
     {Wen-Cheng}{W.-C.}%
     {}{}%
     {}{}}%
  }
  \list{publisher}{1}{%
    {American Society of Civil Engineers}%
  }
  \strng{namehash}{HMH+1}
  \strng{fullhash}{HMHKAYKJTLWC1}
  \field{labelyear}{1999}
  \field{sortinit}{H}
  \field{number}{2}
  \field{pages}{166\bibrangedash 182}
  \field{title}{Procedure to calibrate and verify numerical models of estuarine
  hydrodynamics}
  \field{volume}{125}
  \field{journaltitle}{Journal of hydraulic engineering}
  \field{year}{1999}
\endentry

\entry{jahns1966}{article}{}
  \name{author}{1}{}{%
    {{}%
     {Jahns}{J.}%
     {H.O.}{H.}%
     {}{}%
     {}{}}%
  }
  \strng{namehash}{JH1}
  \strng{fullhash}{JH1}
  \field{labelyear}{1966}
  \field{sortinit}{J}
  \field{number}{4}
  \field{pages}{315\bibrangedash 327}
  \field{title}{A rapid method for obtaining a two-dimensional reservoir
  description from well pressure response data}
  \field{volume}{6}
  \field{journaltitle}{Society of Petroleum Engineers Journal}
  \field{year}{1966}
\endentry

\entry{james2002modelling}{article}{}
  \name{author}{1}{}{%
    {{}%
     {James}{J.}%
     {ID}{I.}%
     {}{}%
     {}{}}%
  }
  \list{publisher}{1}{%
    {Elsevier}%
  }
  \strng{namehash}{JI1}
  \strng{fullhash}{JI1}
  \field{labelyear}{2002}
  \field{sortinit}{J}
  \field{number}{4}
  \field{pages}{363\bibrangedash 385}
  \field{title}{Modelling pollution dispersion, the ecosystem and water quality
  in coastal waters: a review}
  \field{volume}{17}
  \field{journaltitle}{Environmental Modelling \& Software}
  \field{year}{2002}
\endentry

\entry{jay1999comparison}{article}{}
  \name{author}{2}{}{%
    {{}%
     {Jay}{J.}%
     {David~A}{D.~A.}%
     {}{}%
     {}{}}%
    {{}%
     {Flinchem}{F.}%
     {Edward~P}{E.~P.}%
     {}{}%
     {}{}}%
  }
  \list{publisher}{1}{%
    {Elsevier}%
  }
  \strng{namehash}{JDAFEP1}
  \strng{fullhash}{JDAFEP1}
  \field{labelyear}{1999}
  \field{sortinit}{J}
  \field{number}{13}
  \field{pages}{1695\bibrangedash 1732}
  \field{title}{A comparison of methods for analysis of tidal records
  containing multi-scale non-tidal background energy}
  \field{volume}{19}
  \field{journaltitle}{Continental Shelf Research}
  \field{year}{1999}
\endentry

\entry{jones2008modification}{article}{}
  \name{author}{2}{}{%
    {{}%
     {Jones}{J.}%
     {J~Eric}{J.~E.}%
     {}{}%
     {}{}}%
    {{}%
     {Davies}{D.}%
     {Alan~M}{A.~M.}%
     {}{}%
     {}{}}%
  }
  \list{publisher}{1}{%
    {Wiley Online Library}%
  }
  \strng{namehash}{JJEDAM1}
  \strng{fullhash}{JJEDAM1}
  \field{labelyear}{2008}
  \field{sortinit}{J}
  \field{number}{C5}
  \field{title}{On the modification of tides in shallow water regions by wind
  effects}
  \field{volume}{113}
  \field{journaltitle}{Journal of Geophysical Research: Oceans}
  \field{year}{2008}
\endentry

\entry{jouon2006calculations}{article}{}
  \name{author}{4}{}{%
    {{}%
     {Jouon}{J.}%
     {Aymeric}{A.}%
     {}{}%
     {}{}}%
    {{}%
     {Douillet}{D.}%
     {Pascal}{P.}%
     {}{}%
     {}{}}%
    {{}%
     {Ouillon}{O.}%
     {Sylvain}{S.}%
     {}{}%
     {}{}}%
    {{}%
     {Frauni{\'e}}{F.}%
     {Philippe}{P.}%
     {}{}%
     {}{}}%
  }
  \list{publisher}{1}{%
    {Elsevier}%
  }
  \strng{namehash}{JA+1}
  \strng{fullhash}{JADPOSFP1}
  \field{labelyear}{2006}
  \field{sortinit}{J}
  \field{number}{12-13}
  \field{pages}{1395\bibrangedash 1415}
  \field{title}{Calculations of hydrodynamic time parameters in a semi-opened
  coastal zone using a 3D hydrodynamic model}
  \field{volume}{26}
  \field{journaltitle}{Continental Shelf Research}
  \field{year}{2006}
\endentry

\entry{kabbaj1980nonlinear}{article}{}
  \name{author}{2}{}{%
    {{}%
     {Kabbaj}{K.}%
     {A}{A}%
     {}{}%
     {}{}}%
    {{}%
     {Le~Provost}{L.~P.}%
     {C}{C}%
     {}{}%
     {}{}}%
  }
  \list{publisher}{1}{%
    {Taylor \& Francis}%
  }
  \strng{namehash}{KALPC1}
  \strng{fullhash}{KALPC1}
  \field{labelyear}{1980}
  \field{sortinit}{K}
  \field{number}{2}
  \field{pages}{143\bibrangedash 163}
  \field{title}{Nonlinear tidal waves in channels: a perturbation method
  adapted to the importance of quadratic bottom friction}
  \field{volume}{32}
  \field{journaltitle}{Tellus}
  \field{year}{1980}
\endentry

\entry{kraines1998wind}{article}{}
  \name{author}{4}{}{%
    {{}%
     {Kraines}{K.}%
     {SB}{S.}%
     {}{}%
     {}{}}%
    {{}%
     {Yanagi}{Y.}%
     {T}{T}%
     {}{}%
     {}{}}%
    {{}%
     {Isobe}{I.}%
     {M}{M}%
     {}{}%
     {}{}}%
    {{}%
     {Komiyama}{K.}%
     {H}{H}%
     {}{}%
     {}{}}%
  }
  \list{publisher}{1}{%
    {Springer}%
  }
  \strng{namehash}{KS+1}
  \strng{fullhash}{KSYTIMKH1}
  \field{labelyear}{1998}
  \field{sortinit}{K}
  \field{number}{2}
  \field{pages}{133\bibrangedash 143}
  \field{title}{Wind-wave driven circulation on the coral reef at Bora Bay,
  Miyako Island}
  \field{volume}{17}
  \field{journaltitle}{Coral reefs}
  \field{year}{1998}
\endentry

\entry{le2010hydrography}{article}{}
  \name{author}{4}{}{%
    {{}%
     {Le~Borgne}{L.~B.}%
     {Robert}{R.}%
     {}{}%
     {}{}}%
    {{}%
     {Douillet}{D.}%
     {Pascal}{P.}%
     {}{}%
     {}{}}%
    {{}%
     {Fichez}{F.}%
     {Renaud}{R.}%
     {}{}%
     {}{}}%
    {{}%
     {Torr{\'e}ton}{T.}%
     {Jean-Pascal}{J.-P.}%
     {}{}%
     {}{}}%
  }
  \list{publisher}{1}{%
    {Elsevier}%
  }
  \strng{namehash}{LBR+1}
  \strng{fullhash}{LBRDPFRTJP1}
  \field{labelyear}{2010}
  \field{sortinit}{L}
  \field{number}{7-12}
  \field{pages}{297\bibrangedash 308}
  \field{title}{Hydrography and plankton temporal variabilities at different
  time scales in the southwest lagoon of New Caledonia: A review}
  \field{volume}{61}
  \field{journaltitle}{Marine Pollution Bulletin}
  \field{year}{2010}
\endentry

\entry{le1986variational}{article}{}
  \name{author}{2}{}{%
    {{}%
     {Le~Dimet}{L.~D.}%
     {Fran{\c{c}}ois-Xavier}{F.-X.}%
     {}{}%
     {}{}}%
    {{}%
     {Talagrand}{T.}%
     {Olivier}{O.}%
     {}{}%
     {}{}}%
  }
  \list{publisher}{1}{%
    {Taylor \& Francis}%
  }
  \strng{namehash}{LDFXTO1}
  \strng{fullhash}{LDFXTO1}
  \field{labelyear}{1986}
  \field{sortinit}{L}
  \field{number}{2}
  \field{pages}{97\bibrangedash 110}
  \field{title}{Variational algorithms for analysis and assimilation of
  meteorological observations: theoretical aspects}
  \field{volume}{38}
  \field{journaltitle}{Tellus A: Dynamic Meteorology and Oceanography}
  \field{year}{1986}
\endentry

\entry{le1994spectroscopy}{article}{}
  \name{author}{5}{}{%
    {{}%
     {Le~Provost}{L.~P.}%
     {C}{C}%
     {}{}%
     {}{}}%
    {{}%
     {Genco}{G.}%
     {ML}{M.}%
     {}{}%
     {}{}}%
    {{}%
     {Lyard}{L.}%
     {F}{F}%
     {}{}%
     {}{}}%
    {{}%
     {Vincent}{V.}%
     {P}{P}%
     {}{}%
     {}{}}%
    {{}%
     {Canceil}{C.}%
     {P}{P}%
     {}{}%
     {}{}}%
  }
  \list{publisher}{1}{%
    {Wiley Online Library}%
  }
  \strng{namehash}{LPC+1}
  \strng{fullhash}{LPCGMLFVPCP1}
  \field{labelyear}{1994}
  \field{sortinit}{L}
  \field{number}{C12}
  \field{pages}{24777\bibrangedash 24797}
  \field{title}{Spectroscopy of the world ocean tides from a finite element
  hydrodynamic model}
  \field{volume}{99}
  \field{journaltitle}{Journal of Geophysical Research: Oceans}
  \field{year}{1994}
\endentry

\entry{le1998hydrodynamic}{article}{}
  \name{author}{5}{}{%
    {{}%
     {Le~Provost}{L.~P.}%
     {C}{C}%
     {}{}%
     {}{}}%
    {{}%
     {Lyard}{L.}%
     {F}{F}%
     {}{}%
     {}{}}%
    {{}%
     {Molines}{M.}%
     {JM}{J.}%
     {}{}%
     {}{}}%
    {{}%
     {Genco}{G.}%
     {ML}{M.}%
     {}{}%
     {}{}}%
    {{}%
     {Rabilloud}{R.}%
     {F}{F}%
     {}{}%
     {}{}}%
  }
  \list{publisher}{1}{%
    {Wiley Online Library}%
  }
  \strng{namehash}{LPC+1}
  \strng{fullhash}{LPCLFMJGMRF1}
  \field{labelyear}{1998}
  \field{sortinit}{L}
  \field{number}{C3}
  \field{pages}{5513\bibrangedash 5529}
  \field{title}{A hydrodynamic ocean tide model improved by assimilating a
  satellite altimeter-derived data set}
  \field{volume}{103}
  \field{journaltitle}{Journal of Geophysical Research: Oceans}
  \field{year}{1998}
\endentry

\entry{lefevre2010weather}{article}{}
  \name{author}{5}{}{%
    {{}%
     {Lef{\`e}vre}{L.}%
     {J{\'e}r{\^o}me}{J.}%
     {}{}%
     {}{}}%
    {{}%
     {Marchesiello}{M.}%
     {Patrick}{P.}%
     {}{}%
     {}{}}%
    {{}%
     {Jourdain}{J.}%
     {Nicolas~C}{N.~C.}%
     {}{}%
     {}{}}%
    {{}%
     {Menkes}{M.}%
     {Christophe}{C.}%
     {}{}%
     {}{}}%
    {{}%
     {Leroy}{L.}%
     {Anne}{A.}%
     {}{}%
     {}{}}%
  }
  \list{publisher}{1}{%
    {Elsevier}%
  }
  \strng{namehash}{LJ+1}
  \strng{fullhash}{LJMPJNCMCLA1}
  \field{labelyear}{2010}
  \field{sortinit}{L}
  \field{number}{7-12}
  \field{pages}{413\bibrangedash 431}
  \field{title}{Weather regimes and orographic circulation around New
  Caledonia}
  \field{volume}{61}
  \field{journaltitle}{Marine pollution bulletin}
  \field{year}{2010}
\endentry

\entry{lellouche1998data}{article}{}
  \name{author}{3}{}{%
    {{}%
     {Lellouche}{L.}%
     {Jean-Michel}{J.-M.}%
     {}{}%
     {}{}}%
    {{}%
     {Devenon}{D.}%
     {Jean-Luc}{J.-L.}%
     {}{}%
     {}{}}%
    {{}%
     {Dekeyser}{D.}%
     {Ivan}{I.}%
     {}{}%
     {}{}}%
  }
  \strng{namehash}{LJMDJLDI1}
  \strng{fullhash}{LJMDJLDI1}
  \field{labelyear}{1998}
  \field{sortinit}{L}
  \field{number}{2}
  \field{pages}{470\bibrangedash 481}
  \field{title}{Data assimilation by optimal control method in a 3d coastal
  oceanic model: The problem of discretization}
  \field{volume}{15}
  \field{journaltitle}{Journal of Atmospheric and Oceanic Technology}
  \field{year}{1998}
\endentry

\entry{lentz2018coral}{article}{}
  \name{author}{3}{}{%
    {{}%
     {Lentz}{L.}%
     {SJ}{S.}%
     {}{}%
     {}{}}%
    {{}%
     {Churchill}{C.}%
     {JH}{J.}%
     {}{}%
     {}{}}%
    {{}%
     {Davis}{D.}%
     {KA}{K.}%
     {}{}%
     {}{}}%
  }
  \strng{namehash}{LSCJDK1}
  \strng{fullhash}{LSCJDK1}
  \field{labelyear}{2018}
  \field{sortinit}{L}
  \field{number}{7}
  \field{pages}{1555\bibrangedash 1566}
  \field{title}{Coral reef drag coefficients—Surface gravity wave
  enhancement}
  \field{volume}{48}
  \field{journaltitle}{Journal of Physical Oceanography}
  \field{year}{2018}
\endentry

\entry{lentz2016characteristics}{article}{}
  \name{author}{6}{}{%
    {{}%
     {Lentz}{L.}%
     {SJ}{S.}%
     {}{}%
     {}{}}%
    {{}%
     {Churchill}{C.}%
     {JH}{J.}%
     {}{}%
     {}{}}%
    {{}%
     {Davis}{D.}%
     {KA}{K.}%
     {}{}%
     {}{}}%
    {{}%
     {Farrar}{F.}%
     {JT}{J.}%
     {}{}%
     {}{}}%
    {{}%
     {Pineda}{P.}%
     {J}{J}%
     {}{}%
     {}{}}%
    {{}%
     {Starczak}{S.}%
     {V}{V}%
     {}{}%
     {}{}}%
  }
  \list{publisher}{1}{%
    {Wiley Online Library}%
  }
  \strng{namehash}{LS+1}
  \strng{fullhash}{LSCJDKFJPJSV1}
  \field{labelyear}{2016}
  \field{sortinit}{L}
  \field{number}{2}
  \field{pages}{1360\bibrangedash 1376}
  \field{title}{The characteristics and dynamics of wave-driven flow across a
  platform coral reef in the Red Sea}
  \field{volume}{121}
  \field{journaltitle}{Journal of Geophysical Research: Oceans}
  \field{year}{2016}
\endentry

\entry{longuet1962radiation}{article}{}
  \name{author}{2}{}{%
    {{}%
     {Longuet-Higgins}{L.-H.}%
     {Michael~S}{M.~S.}%
     {}{}%
     {}{}}%
    {{}%
     {Stewart}{S.}%
     {RW}{R.}%
     {}{}%
     {}{}}%
  }
  \list{publisher}{1}{%
    {Cambridge University Press}%
  }
  \strng{namehash}{LHMSSR1}
  \strng{fullhash}{LHMSSR1}
  \field{labelyear}{1962}
  \field{sortinit}{L}
  \field{number}{4}
  \field{pages}{481\bibrangedash 504}
  \field{title}{Radiation stress and mass transport in gravity waves, with
  application to ‘surf beats’}
  \field{volume}{13}
  \field{journaltitle}{Journal of Fluid Mechanics}
  \field{year}{1962}
\endentry

\entry{longuet1964radiation}{inproceedings}{}
  \name{author}{2}{}{%
    {{}%
     {Longuet-Higgins}{L.-H.}%
     {Michael~S}{M.~S.}%
     {}{}%
     {}{}}%
    {{}%
     {Stewart}{S.}%
     {RW}{R.}%
     {}{}%
     {}{}}%
  }
  \list{organization}{1}{%
    {Elsevier}%
  }
  \strng{namehash}{LHMSSR1}
  \strng{fullhash}{LHMSSR1}
  \field{labelyear}{1964}
  \field{sortinit}{L}
  \field{booktitle}{Deep sea research and oceanographic abstracts}
  \field{number}{4}
  \field{pages}{529\bibrangedash 562}
  \field{title}{Radiation stresses in water waves; a physical discussion, with
  applications}
  \field{volume}{11}
  \field{year}{1964}
\endentry

\entry{longuet1960changes}{article}{}
  \name{author}{2}{}{%
    {{}%
     {Longuet-Higgins}{L.-H.}%
     {MS}{M.}%
     {}{}%
     {}{}}%
    {{}%
     {Stewart}{S.}%
     {RW}{R.}%
     {}{}%
     {}{}}%
  }
  \list{publisher}{1}{%
    {Cambridge University Press}%
  }
  \strng{namehash}{LHMSR1}
  \strng{fullhash}{LHMSR1}
  \field{labelyear}{1960}
  \field{sortinit}{L}
  \field{number}{4}
  \field{pages}{565\bibrangedash 583}
  \field{title}{Changes in the form of short gravity waves on long waves and
  tidal currents}
  \field{volume}{8}
  \field{journaltitle}{Journal of Fluid Mechanics}
  \field{year}{1960}
\endentry

\entry{lowe2005oscillatory}{article}{}
  \name{author}{3}{}{%
    {{}%
     {Lowe}{L.}%
     {Ryan~J}{R.~J.}%
     {}{}%
     {}{}}%
    {{}%
     {Koseff}{K.}%
     {Jeffrey~R}{J.~R.}%
     {}{}%
     {}{}}%
    {{}%
     {Monismith}{M.}%
     {Stephen~G}{S.~G.}%
     {}{}%
     {}{}}%
  }
  \list{publisher}{1}{%
    {Wiley Online Library}%
  }
  \strng{namehash}{LRJKJRMSG1}
  \strng{fullhash}{LRJKJRMSG1}
  \field{labelyear}{2005}
  \field{sortinit}{L}
  \field{number}{C10}
  \field{title}{Oscillatory flow through submerged canopies: 1. Velocity
  structure}
  \field{volume}{110}
  \field{journaltitle}{Journal of Geophysical Research: Oceans}
  \field{year}{2005}
\endentry

\entry{lynch1998hindcasting}{article}{}
  \name{author}{3}{}{%
    {{}%
     {Lynch}{L.}%
     {Daniel~R}{D.~R.}%
     {}{}%
     {}{}}%
    {{}%
     {Naimie}{N.}%
     {Christopher~E}{C.~E.}%
     {}{}%
     {}{}}%
    {{}%
     {Hannah}{H.}%
     {Charles~G}{C.~G.}%
     {}{}%
     {}{}}%
  }
  \list{publisher}{1}{%
    {Elsevier}%
  }
  \strng{namehash}{LDRNCEHCG1}
  \strng{fullhash}{LDRNCEHCG1}
  \field{labelyear}{1998}
  \field{sortinit}{L}
  \field{number}{6}
  \field{pages}{607\bibrangedash 639}
  \field{title}{Hindcasting the georges bank circulation. part I: Detiding}
  \field{volume}{18}
  \field{journaltitle}{Continental Shelf Research}
  \field{year}{1998}
\endentry

\entry{marchesiello2001open}{article}{}
  \name{author}{3}{}{%
    {{}%
     {Marchesiello}{M.}%
     {Patrick}{P.}%
     {}{}%
     {}{}}%
    {{}%
     {McWilliams}{M.}%
     {James~C}{J.~C.}%
     {}{}%
     {}{}}%
    {{}%
     {Shchepetkin}{S.}%
     {Alexander}{A.}%
     {}{}%
     {}{}}%
  }
  \list{publisher}{1}{%
    {Elsevier}%
  }
  \strng{namehash}{MPMJCSA1}
  \strng{fullhash}{MPMJCSA1}
  \field{labelyear}{2001}
  \field{sortinit}{M}
  \field{number}{1-2}
  \field{pages}{1\bibrangedash 20}
  \field{title}{Open boundary conditions for long-term integration of regional
  oceanic models}
  \field{volume}{3}
  \field{journaltitle}{Ocean modelling}
  \field{year}{2001}
\endentry

\entry{marchesiello2010coastal}{article}{}
  \name{author}{5}{}{%
    {{}%
     {Marchesiello}{M.}%
     {Patrick}{P.}%
     {}{}%
     {}{}}%
    {{}%
     {Lef{\`e}vre}{L.}%
     {J{\'e}r{\^o}me}{J.}%
     {}{}%
     {}{}}%
    {{}%
     {Vega}{V.}%
     {Andres}{A.}%
     {}{}%
     {}{}}%
    {{}%
     {Couvelard}{C.}%
     {Xavier}{X.}%
     {}{}%
     {}{}}%
    {{}%
     {Menkes}{M.}%
     {Christophe}{C.}%
     {}{}%
     {}{}}%
  }
  \list{publisher}{1}{%
    {Elsevier}%
  }
  \strng{namehash}{MP+1}
  \strng{fullhash}{MPLJVACXMC1}
  \field{labelyear}{2010}
  \field{sortinit}{M}
  \field{number}{7-12}
  \field{pages}{432\bibrangedash 448}
  \field{title}{Coastal upwelling, circulation and heat balance around New
  Caledonia’s barrier reef}
  \field{volume}{61}
  \field{journaltitle}{Marine pollution bulletin}
  \field{year}{2010}
\endentry

\entry{mellor2003three}{article}{}
  \name{author}{1}{}{%
    {{}%
     {Mellor}{M.}%
     {George}{G.}%
     {}{}%
     {}{}}%
  }
  \strng{namehash}{MG1}
  \strng{fullhash}{MG1}
  \field{labelyear}{2003}
  \field{sortinit}{M}
  \field{number}{9}
  \field{pages}{1978\bibrangedash 1989}
  \field{title}{The three-dimensional current and surface wave equations}
  \field{volume}{33}
  \field{journaltitle}{Journal of Physical Oceanography}
  \field{year}{2003}
\endentry

\entry{monismith2007hydrodynamics}{article}{}
  \name{author}{1}{}{%
    {{}%
     {Monismith}{M.}%
     {Stephen~G}{S.~G.}%
     {}{}%
     {}{}}%
  }
  \list{publisher}{1}{%
    {Annual Reviews}%
  }
  \strng{namehash}{MSG1}
  \strng{fullhash}{MSG1}
  \field{labelyear}{2007}
  \field{sortinit}{M}
  \field{pages}{37\bibrangedash 55}
  \field{title}{Hydrodynamics of coral reefs}
  \field{volume}{39}
  \field{journaltitle}{Annu. Rev. Fluid Mech.}
  \field{year}{2007}
\endentry

\entry{moore2004comprehensive}{article}{}
  \name{author}{6}{}{%
    {{}%
     {Moore}{M.}%
     {Andrew~M}{A.~M.}%
     {}{}%
     {}{}}%
    {{}%
     {Arango}{A.}%
     {Hernan~G}{H.~G.}%
     {}{}%
     {}{}}%
    {{}%
     {Di~Lorenzo}{D.~L.}%
     {Emanuele}{E.}%
     {}{}%
     {}{}}%
    {{}%
     {Cornuelle}{C.}%
     {Bruce~D}{B.~D.}%
     {}{}%
     {}{}}%
    {{}%
     {Miller}{M.}%
     {Arthur~J}{A.~J.}%
     {}{}%
     {}{}}%
    {{}%
     {Neilson}{N.}%
     {Douglas~J}{D.~J.}%
     {}{}%
     {}{}}%
  }
  \list{publisher}{1}{%
    {Elsevier}%
  }
  \strng{namehash}{MAM+1}
  \strng{fullhash}{MAMAHGDLECBDMAJNDJ1}
  \field{labelyear}{2004}
  \field{sortinit}{M}
  \field{number}{1-2}
  \field{pages}{227\bibrangedash 258}
  \field{title}{A comprehensive ocean prediction and analysis system based on
  the tangent linear and adjoint of a regional ocean model}
  \field{volume}{7}
  \field{journaltitle}{Ocean Modelling}
  \field{year}{2004}
\endentry

\entry{moore20134d}{incollection}{}
  \name{author}{8}{}{%
    {{}%
     {Moore}{M.}%
     {Andrew~M}{A.~M.}%
     {}{}%
     {}{}}%
    {{}%
     {Edwards}{E.}%
     {Christopher~A}{C.~A.}%
     {}{}%
     {}{}}%
    {{}%
     {Fiechter}{F.}%
     {Jerome}{J.}%
     {}{}%
     {}{}}%
    {{}%
     {Drake}{D.}%
     {Patrick}{P.}%
     {}{}%
     {}{}}%
    {{}%
     {Neveu}{N.}%
     {Emilie}{E.}%
     {}{}%
     {}{}}%
    {{}%
     {Arango}{A.}%
     {Hernan~G}{H.~G.}%
     {}{}%
     {}{}}%
    {{}%
     {G{\"u}rol}{G.}%
     {Selime}{S.}%
     {}{}%
     {}{}}%
    {{}%
     {Weaver}{W.}%
     {Anthony~T}{A.~T.}%
     {}{}%
     {}{}}%
  }
  \list{publisher}{1}{%
    {Springer}%
  }
  \strng{namehash}{MAM+1}
  \strng{fullhash}{MAMECAFJDPNEAHGGSWAT1}
  \field{labelyear}{2013}
  \field{sortinit}{M}
  \field{booktitle}{Data Assimilation for Atmospheric, Oceanic and Hydrologic
  Applications (Vol. II)}
  \field{pages}{345\bibrangedash 366}
  \field{title}{A 4D-Var analysis system for the California Current: A
  prototype for an operational regional ocean data assimilation system}
  \field{year}{2013}
\endentry

\entry{munk1948adjustment}{article}{}
  \name{author}{2}{}{%
    {{}%
     {Munk}{M.}%
     {Walter~H}{W.~H.}%
     {}{}%
     {}{}}%
    {{}%
     {Sargent}{S.}%
     {Martson~C}{M.~C.}%
     {}{}%
     {}{}}%
  }
  \list{publisher}{1}{%
    {Wiley Online Library}%
  }
  \strng{namehash}{MWHSMC1}
  \strng{fullhash}{MWHSMC1}
  \field{labelyear}{1948}
  \field{sortinit}{M}
  \field{number}{6}
  \field{pages}{855\bibrangedash 860}
  \field{title}{Adjustment of Bikini Atoll to ocean waves}
  \field{volume}{29}
  \field{journaltitle}{Eos, Transactions American Geophysical Union}
  \field{year}{1948}
\endentry

\entry{nunes2008observations}{article}{}
  \name{author}{2}{}{%
    {{}%
     {Nunes}{N.}%
     {Vasco}{V.}%
     {}{}%
     {}{}}%
    {{}%
     {Pawlak}{P.}%
     {Geno}{G.}%
     {}{}%
     {}{}}%
  }
  \list{publisher}{1}{%
    {JSTOR}%
  }
  \strng{namehash}{NVPG1}
  \strng{fullhash}{NVPG1}
  \field{labelyear}{2008}
  \field{sortinit}{N}
  \field{pages}{39\bibrangedash 50}
  \field{title}{Observations of bed roughness of a coral reef}
  \field{journaltitle}{Journal of Coastal Research}
  \field{year}{2008}
\endentry

\entry{osorio2019drag}{article}{}
  \name{author}{4}{}{%
    {{}%
     {Osorio-Cano}{O.-C.}%
     {Juan~D}{J.~D.}%
     {}{}%
     {}{}}%
    {{}%
     {Osorio}{O.}%
     {Andr{\'e}s~F}{A.~F.}%
     {}{}%
     {}{}}%
    {{}%
     {Alc{\'e}rreca-Huerta}{A.-H.}%
     {Juan~C}{J.~C.}%
     {}{}%
     {}{}}%
    {{}%
     {Oumeraci}{O.}%
     {Hocine}{H.}%
     {}{}%
     {}{}}%
  }
  \list{publisher}{1}{%
    {Elsevier}%
  }
  \strng{namehash}{OCJD+1}
  \strng{fullhash}{OCJDOAFAHJCOH1}
  \field{labelyear}{2019}
  \field{sortinit}{O}
  \field{pages}{31\bibrangedash 47}
  \field{title}{Drag and inertia forces on a branched coral colony of Acropora
  palmata}
  \field{volume}{88}
  \field{journaltitle}{Journal of Fluids and Structures}
  \field{year}{2019}
\endentry

\entry{ouillon2005enhancement}{article}{}
  \name{author}{4}{}{%
    {{}%
     {Ouillon}{O.}%
     {Sylvain}{S.}%
     {}{}%
     {}{}}%
    {{}%
     {Douillet}{D.}%
     {Pascal}{P.}%
     {}{}%
     {}{}}%
    {{}%
     {Fichez}{F.}%
     {Renaud}{R.}%
     {}{}%
     {}{}}%
    {{}%
     {Panch{\'e}}{P.}%
     {Jean-Yves}{J.-Y.}%
     {}{}%
     {}{}}%
  }
  \list{publisher}{1}{%
    {Elsevier}%
  }
  \strng{namehash}{OS+1}
  \strng{fullhash}{OSDPFRPJY1}
  \field{labelyear}{2005}
  \field{sortinit}{O}
  \field{number}{16}
  \field{pages}{1509\bibrangedash 1517}
  \field{title}{Enhancement of regional variations in salinity and temperature
  in a coral reef lagoon, New Caledonia}
  \field{volume}{337}
  \field{journaltitle}{Comptes Rendus Geoscience}
  \field{year}{2005}
\endentry

\entry{ouillon2010circulation}{article}{}
  \true{moreauthor}
  \name{author}{10}{}{%
    {{}%
     {Ouillon}{O.}%
     {Sylvain}{S.}%
     {}{}%
     {}{}}%
    {{}%
     {Douillet}{D.}%
     {Pascal}{P.}%
     {}{}%
     {}{}}%
    {{}%
     {Lefebvre}{L.}%
     {Jean-Pierre}{J.-P.}%
     {}{}%
     {}{}}%
    {{}%
     {Le~Gendre}{L.~G.}%
     {Romain}{R.}%
     {}{}%
     {}{}}%
    {{}%
     {Jouon}{J.}%
     {A}{A}%
     {}{}%
     {}{}}%
    {{}%
     {Bonneton}{B.}%
     {P}{P}%
     {}{}%
     {}{}}%
    {{}%
     {Fernandez}{F.}%
     {Jean-Michel}{J.-M.}%
     {}{}%
     {}{}}%
    {{}%
     {Chevillon}{C.}%
     {Christophe}{C.}%
     {}{}%
     {}{}}%
    {{}%
     {Magand}{M.}%
     {O}{O}%
     {}{}%
     {}{}}%
    {{}%
     {Lef{\`e}vre}{L.}%
     {J{\'e}r{\^o}me}{J.}%
     {}{}%
     {}{}}%
  }
  \list{publisher}{1}{%
    {Elsevier}%
  }
  \strng{namehash}{OS+1}
  \strng{fullhash}{OSDPLJPLGRJABPFJMCCMOLJ+1}
  \field{labelyear}{2010}
  \field{sortinit}{O}
  \field{number}{7-12}
  \field{pages}{269\bibrangedash 296}
  \field{title}{Circulation and suspended sediment transport in a coral reef
  lagoon: The south-west lagoon of New Caledonia}
  \field{volume}{61}
  \field{journaltitle}{Marine pollution bulletin}
  \field{year}{2010}
\endentry

\entry{proudman1925lxi}{article}{}
  \name{author}{1}{}{%
    {{}%
     {Proudman}{P.}%
     {Joseph}{J.}%
     {}{}%
     {}{}}%
  }
  \list{publisher}{1}{%
    {Taylor \& Francis}%
  }
  \strng{namehash}{PJ1}
  \strng{fullhash}{PJ1}
  \field{labelyear}{1925}
  \field{sortinit}{P}
  \field{number}{291}
  \field{pages}{570\bibrangedash 579}
  \field{title}{LXI. A theorem in tidal dynamics}
  \field{volume}{49}
  \field{journaltitle}{The London, Edinburgh, and Dublin Philosophical Magazine
  and Journal of Science}
  \field{year}{1925}
\endentry

\entry{purkis2018remote}{article}{}
  \name{author}{1}{}{%
    {{}%
     {Purkis}{P.}%
     {Sam~J}{S.~J.}%
     {}{}%
     {}{}}%
  }
  \list{publisher}{1}{%
    {Annual Reviews}%
  }
  \strng{namehash}{PSJ1}
  \strng{fullhash}{PSJ1}
  \field{labelyear}{2018}
  \field{sortinit}{P}
  \field{pages}{149\bibrangedash 168}
  \field{title}{Remote sensing tropical coral reefs: The view from above}
  \field{volume}{10}
  \field{journaltitle}{Annual review of marine science}
  \field{year}{2018}
\endentry

\entry{reddy2016improved}{inproceedings}{}
  \name{author}{3}{}{%
    {{}%
     {Reddy}{R.}%
     {D~Sai~Koti}{D.~S.~K.}%
     {}{}%
     {}{}}%
    {{}%
     {Prashanth}{P.}%
     {LA}{L.}%
     {}{}%
     {}{}}%
    {{}%
     {Bhatnagar}{B.}%
     {Shalabh}{S.}%
     {}{}%
     {}{}}%
  }
  \list{organization}{1}{%
    {IEEE}%
  }
  \strng{namehash}{RDSKPLBS1}
  \strng{fullhash}{RDSKPLBS1}
  \field{labelyear}{2016}
  \field{sortinit}{R}
  \field{booktitle}{2016 IEEE 55th Conference on Decision and Control (CDC)}
  \field{pages}{3682\bibrangedash 3687}
  \field{title}{Improved Hessian estimation for adaptive random directions
  stochastic approximation}
  \field{year}{2016}
\endentry

\entry{rodriguez2006multiscale}{inproceedings}{}
  \name{author}{4}{}{%
    {{}%
     {Rodriguez}{R.}%
     {A.A.}{A.}%
     {}{}%
     {}{}}%
    {{}%
     {Klie}{K.}%
     {H.M.}{H.}%
     {}{}%
     {}{}}%
    {{}%
     {Thomas}{T.}%
     {S.G.}{S.}%
     {}{}%
     {}{}}%
    {{}%
     {Wheeler}{W.}%
     {M.F.}{M.}%
     {}{}%
     {}{}}%
  }
  \strng{namehash}{RA+1}
  \strng{fullhash}{RAKHTSWM1}
  \field{labelyear}{2006}
  \field{sortinit}{R}
  \field{booktitle}{ECMOR X-10th European Conference on the Mathematics of Oil
  Recovery}
  \field{title}{A multiscale and metamodel simulation-based method for history
  matching}
  \field{year}{2006}
\endentry

\entry{rogers2015field}{article}{}
  \name{author}{4}{}{%
    {{}%
     {Rogers}{R.}%
     {Justin~S}{J.~S.}%
     {}{}%
     {}{}}%
    {{}%
     {Monismith}{M.}%
     {Stephen~G}{S.~G.}%
     {}{}%
     {}{}}%
    {{}%
     {Dunbar}{D.}%
     {Robert~B}{R.~B.}%
     {}{}%
     {}{}}%
    {{}%
     {Koweek}{K.}%
     {David}{D.}%
     {}{}%
     {}{}}%
  }
  \list{publisher}{1}{%
    {Wiley Online Library}%
  }
  \strng{namehash}{RJS+1}
  \strng{fullhash}{RJSMSGDRBKD1}
  \field{labelyear}{2015}
  \field{sortinit}{R}
  \field{number}{1}
  \field{pages}{145\bibrangedash 160}
  \field{title}{Field observations of wave-driven circulation over spur and
  groove formations on a coral reef}
  \field{volume}{120}
  \field{journaltitle}{Journal of Geophysical Research: Oceans}
  \field{year}{2015}
\endentry

\entry{rogers2016thermodynamics}{article}{}
  \name{author}{5}{}{%
    {{}%
     {Rogers}{R.}%
     {Justin~S}{J.~S.}%
     {}{}%
     {}{}}%
    {{}%
     {Monismith}{M.}%
     {Stephen~G}{S.~G.}%
     {}{}%
     {}{}}%
    {{}%
     {Koweek}{K.}%
     {David~A}{D.~A.}%
     {}{}%
     {}{}}%
    {{}%
     {Torres}{T.}%
     {Walter~I}{W.~I.}%
     {}{}%
     {}{}}%
    {{}%
     {Dunbar}{D.}%
     {Robert~B}{R.~B.}%
     {}{}%
     {}{}}%
  }
  \list{publisher}{1}{%
    {Wiley Online Library}%
  }
  \strng{namehash}{RJS+1}
  \strng{fullhash}{RJSMSGKDATWIDRB1}
  \field{labelyear}{2016}
  \field{extrayear}{1}
  \field{sortinit}{R}
  \field{number}{6}
  \field{pages}{2191\bibrangedash 2206}
  \field{title}{Thermodynamics and hydrodynamics in an atoll reef system and
  their influence on coral cover}
  \field{volume}{61}
  \field{journaltitle}{Limnology and Oceanography}
  \field{year}{2016}
\endentry

\entry{rogers2016wave}{article}{}
  \name{author}{4}{}{%
    {{}%
     {Rogers}{R.}%
     {Justin~S}{J.~S.}%
     {}{}%
     {}{}}%
    {{}%
     {Monismith}{M.}%
     {Stephen~G}{S.~G.}%
     {}{}%
     {}{}}%
    {{}%
     {Koweek}{K.}%
     {David~A}{D.~A.}%
     {}{}%
     {}{}}%
    {{}%
     {Dunbar}{D.}%
     {Robert~B}{R.~B.}%
     {}{}%
     {}{}}%
  }
  \list{publisher}{1}{%
    {Wiley Online Library}%
  }
  \strng{namehash}{RJS+1}
  \strng{fullhash}{RJSMSGKDADRB1}
  \field{labelyear}{2016}
  \field{extrayear}{2}
  \field{sortinit}{R}
  \field{number}{1}
  \field{pages}{350\bibrangedash 367}
  \field{title}{Wave dynamics of a P acific A toll with high frictional
  effects}
  \field{volume}{121}
  \field{journaltitle}{Journal of Geophysical Research: Oceans}
  \field{year}{2016}
\endentry

\entry{rogers2017coupled}{article}{}
  \name{author}{5}{}{%
    {{}%
     {Rogers}{R.}%
     {Justin~S}{J.~S.}%
     {}{}%
     {}{}}%
    {{}%
     {Monismith}{M.}%
     {Stephen~G}{S.~G.}%
     {}{}%
     {}{}}%
    {{}%
     {Fringer}{F.}%
     {Oliver~B}{O.~B.}%
     {}{}%
     {}{}}%
    {{}%
     {Koweek}{K.}%
     {David~A}{D.~A.}%
     {}{}%
     {}{}}%
    {{}%
     {Dunbar}{D.}%
     {Robert~B}{R.~B.}%
     {}{}%
     {}{}}%
  }
  \list{publisher}{1}{%
    {Elsevier}%
  }
  \strng{namehash}{RJS+1}
  \strng{fullhash}{RJSMSGFOBKDADRB1}
  \field{labelyear}{2017}
  \field{sortinit}{R}
  \field{pages}{66\bibrangedash 82}
  \field{title}{A coupled wave-hydrodynamic model of an atoll with high
  friction: Mechanisms for flow, connectivity, and ecological implications}
  \field{volume}{110}
  \field{journaltitle}{Ocean Modelling}
  \field{year}{2017}
\endentry

\entry{rogers2018connecting}{article}{}
  \name{author}{6}{}{%
    {{}%
     {Rogers}{R.}%
     {Justin~S}{J.~S.}%
     {}{}%
     {}{}}%
    {{}%
     {Maticka}{M.}%
     {Samantha~A}{S.~A.}%
     {}{}%
     {}{}}%
    {{}%
     {Chirayath}{C.}%
     {Ved}{V.}%
     {}{}%
     {}{}}%
    {{}%
     {Woodson}{W.}%
     {C~Brock}{C.~B.}%
     {}{}%
     {}{}}%
    {{}%
     {Alonso}{A.}%
     {Juan~J}{J.~J.}%
     {}{}%
     {}{}}%
    {{}%
     {Monismith}{M.}%
     {Stephen~G}{S.~G.}%
     {}{}%
     {}{}}%
  }
  \strng{namehash}{RJS+1}
  \strng{fullhash}{RJSMSACVWCBAJJMSG1}
  \field{labelyear}{2018}
  \field{sortinit}{R}
  \field{number}{7}
  \field{pages}{1567\bibrangedash 1587}
  \field{title}{Connecting flow over complex terrain to hydrodynamic roughness
  on a coral reef}
  \field{volume}{48}
  \field{journaltitle}{Journal of Physical Oceanography}
  \field{year}{2018}
\endentry

\entry{sasaki1970numerical}{article}{}
  \name{author}{1}{}{%
    {{}%
     {Sasaki}{S.}%
     {Y.}{Y.}%
     {}{}%
     {}{}}%
  }
  \list{publisher}{1}{%
    {Citeseer}%
  }
  \strng{namehash}{SY1}
  \strng{fullhash}{SY1}
  \field{labelyear}{1970}
  \field{sortinit}{S}
  \field{number}{12}
  \field{pages}{884\bibrangedash 898}
  \field{title}{Numerical variational analysis formulated under the constraints
  as determined by longwave equations and a low-pass filter}
  \field{volume}{98}
  \field{journaltitle}{Mon. Wea. Rev}
  \field{year}{1970}
\endentry

\entry{sasaki1958objective}{article}{}
  \name{author}{1}{}{%
    {{}%
     {Sasaki}{S.}%
     {Yoshikazu}{Y.}%
     {}{}%
     {}{}}%
  }
  \list{publisher}{1}{%
    {Meteorological Society of Japan}%
  }
  \strng{namehash}{SY2}
  \strng{fullhash}{SY2}
  \field{labelyear}{1958}
  \field{sortinit}{S}
  \field{number}{3}
  \field{pages}{77\bibrangedash 88}
  \field{title}{An objective analysis based on the variational method}
  \field{volume}{36}
  \field{journaltitle}{Journal of the Meteorological Society of Japan. Ser. II}
  \field{year}{1958}
\endentry

\entry{sasaki1970numericala}{article}{}
  \true{moreauthor}
  \name{author}{1}{}{%
    {{}%
     {Sasaki}{S.}%
     {Yoshikazu}{Y.}%
     {}{}%
     {}{}}%
  }
  \list{publisher}{1}{%
    {Citeseer}%
  }
  \strng{namehash}{SY+1}
  \strng{fullhash}{SY+1}
  \field{labelyear}{1970}
  \field{sortinit}{S}
  \field{number}{12}
  \field{pages}{884\bibrangedash 898}
  \field{title}{Numerical variational analysis formulated under the constraints
  as determined by longwave equations and a low-pass filter}
  \field{volume}{98}
  \field{journaltitle}{Mon. Wea. Rev}
  \field{year}{1970}
\endentry

\entry{sous2017circulation}{article}{}
  \name{author}{5}{}{%
    {{}%
     {Sous}{S.}%
     {Damien}{D.}%
     {}{}%
     {}{}}%
    {{}%
     {Chevalier}{C.}%
     {Cristele}{C.}%
     {}{}%
     {}{}}%
    {{}%
     {Devenon}{D.}%
     {Jean-Luc}{J.-L.}%
     {}{}%
     {}{}}%
    {{}%
     {Blanchot}{B.}%
     {Jean}{J.}%
     {}{}%
     {}{}}%
    {{}%
     {Pagano}{P.}%
     {Marc}{M.}%
     {}{}%
     {}{}}%
  }
  \list{publisher}{1}{%
    {Elsevier}%
  }
  \strng{namehash}{SD+1}
  \strng{fullhash}{SDCCDJLBJPM1}
  \field{labelyear}{2017}
  \field{sortinit}{S}
  \field{pages}{315\bibrangedash 330}
  \field{title}{Circulation patterns in a channel reef-lagoon system, Ouano
  lagoon, New Caledonia}
  \field{volume}{196}
  \field{journaltitle}{Estuarine, Coastal and Shelf Science}
  \field{year}{2017}
\endentry

\entry{sous2019wave}{article}{}
  \name{author}{8}{}{%
    {{}%
     {Sous}{S.}%
     {Damien}{D.}%
     {}{}%
     {}{}}%
    {{}%
     {Tissier}{T.}%
     {Marion}{M.}%
     {}{}%
     {}{}}%
    {{}%
     {Rey}{R.}%
     {Vincent}{V.}%
     {}{}%
     {}{}}%
    {{}%
     {Touboul}{T.}%
     {Julien}{J.}%
     {}{}%
     {}{}}%
    {{}%
     {Bouchette}{B.}%
     {Frederic}{F.}%
     {}{}%
     {}{}}%
    {{}%
     {Devenon}{D.}%
     {Jean-Luc}{J.-L.}%
     {}{}%
     {}{}}%
    {{}%
     {Chevalier}{C.}%
     {Cristele}{C.}%
     {}{}%
     {}{}}%
    {{}%
     {Aucan}{A.}%
     {Jerome}{J.}%
     {}{}%
     {}{}}%
  }
  \list{publisher}{1}{%
    {Elsevier}%
  }
  \strng{namehash}{SD+1}
  \strng{fullhash}{SDTMRVTJBFDJLCCAJ1}
  \field{labelyear}{2019}
  \field{sortinit}{S}
  \field{pages}{66\bibrangedash 80}
  \field{title}{Wave transformation over a barrier reef}
  \field{volume}{184}
  \field{journaltitle}{Continental Shelf Research}
  \field{year}{2019}
\endentry

\entry{spall1998implementation}{article}{}
  \name{author}{1}{}{%
    {{}%
     {Spall}{S.}%
     {James~C}{J.~C.}%
     {}{}%
     {}{}}%
  }
  \list{publisher}{1}{%
    {IEEE}%
  }
  \strng{namehash}{SJC1}
  \strng{fullhash}{SJC1}
  \field{labelyear}{1998}
  \field{extrayear}{1}
  \field{sortinit}{S}
  \field{number}{3}
  \field{pages}{817\bibrangedash 823}
  \field{title}{Implementation of the simultaneous perturbation algorithm for
  stochastic optimization}
  \field{volume}{34}
  \field{journaltitle}{IEEE Transactions on aerospace and electronic systems}
  \field{year}{1998}
\endentry

\entry{spall1994nonlinear}{inproceedings}{}
  \name{author}{2}{}{%
    {{}%
     {Spall}{S.}%
     {James~C}{J.~C.}%
     {}{}%
     {}{}}%
    {{}%
     {Cristion}{C.}%
     {John~A}{J.~A.}%
     {}{}%
     {}{}}%
  }
  \list{organization}{1}{%
    {IEEE}%
  }
  \strng{namehash}{SJCCJA1}
  \strng{fullhash}{SJCCJA1}
  \field{labelyear}{1994}
  \field{sortinit}{S}
  \field{booktitle}{Proceedings of 1994 American Control Conference-ACC'94}
  \field{pages}{2560\bibrangedash 2564}
  \field{title}{Nonlinear adaptive control using neural networks: Estimation
  with a smoothed form of simultaneous perturbation gradient approximation}
  \field{volume}{3}
  \field{year}{1994}
\endentry

\entry{spall1997neural}{article}{}
  \name{author}{2}{}{%
    {{}%
     {Spall}{S.}%
     {James~C}{J.~C.}%
     {}{}%
     {}{}}%
    {{}%
     {Cristion}{C.}%
     {John~A}{J.~A.}%
     {}{}%
     {}{}}%
  }
  \list{publisher}{1}{%
    {IEEE}%
  }
  \strng{namehash}{SJCCJA1}
  \strng{fullhash}{SJCCJA1}
  \field{labelyear}{1997}
  \field{sortinit}{S}
  \field{number}{3}
  \field{pages}{369\bibrangedash 375}
  \field{title}{A neural network controller for systems with unmodeled dynamics
  with applications to wastewater treatment}
  \field{volume}{27}
  \field{journaltitle}{IEEE Transactions on Systems, Man, and Cybernetics, Part
  B (Cybernetics)}
  \field{year}{1997}
\endentry

\entry{spall1998overview}{article}{}
  \name{author}{1}{}{%
    {{}%
     {Spall}{S.}%
     {J.C.}{J.}%
     {}{}%
     {}{}}%
  }
  \strng{namehash}{SJ1}
  \strng{fullhash}{SJ1}
  \field{labelyear}{1998}
  \field{extrayear}{2}
  \field{sortinit}{S}
  \field{number}{4}
  \field{pages}{482\bibrangedash 492}
  \field{title}{An overview of the simultaneous perturbation method for
  efficient optimization}
  \field{volume}{19}
  \field{journaltitle}{Johns Hopkins apl technical digest}
  \field{year}{1998}
\endentry

\entry{sutskever2013importance}{inproceedings}{}
  \name{author}{4}{}{%
    {{}%
     {Sutskever}{S.}%
     {I.}{I.}%
     {}{}%
     {}{}}%
    {{}%
     {Martens}{M.}%
     {J.}{J.}%
     {}{}%
     {}{}}%
    {{}%
     {Dahl}{D.}%
     {G.}{G.}%
     {}{}%
     {}{}}%
    {{}%
     {Hinton}{H.}%
     {G.}{G.}%
     {}{}%
     {}{}}%
  }
  \strng{namehash}{SI+1}
  \strng{fullhash}{SIMJDGHG1}
  \field{labelyear}{2013}
  \field{sortinit}{S}
  \field{booktitle}{International conference on machine learning}
  \field{pages}{1139\bibrangedash 1147}
  \field{title}{On the importance of initialization and momentum in deep
  learning}
  \field{year}{2013}
\endentry

\entry{taebi2011nearshore}{article}{}
  \name{author}{6}{}{%
    {{}%
     {Taebi}{T.}%
     {Soheila}{S.}%
     {}{}%
     {}{}}%
    {{}%
     {Lowe}{L.}%
     {Ryan~J}{R.~J.}%
     {}{}%
     {}{}}%
    {{}%
     {Pattiaratchi}{P.}%
     {Charitha~B}{C.~B.}%
     {}{}%
     {}{}}%
    {{}%
     {Ivey}{I.}%
     {Greg~N}{G.~N.}%
     {}{}%
     {}{}}%
    {{}%
     {Symonds}{S.}%
     {Graham}{G.}%
     {}{}%
     {}{}}%
    {{}%
     {Brinkman}{B.}%
     {Richard}{R.}%
     {}{}%
     {}{}}%
  }
  \list{publisher}{1}{%
    {Wiley Online Library}%
  }
  \strng{namehash}{TS+1}
  \strng{fullhash}{TSLRJPCBIGNSGBR1}
  \field{labelyear}{2011}
  \field{sortinit}{T}
  \field{number}{C2}
  \field{title}{Nearshore circulation in a tropical fringing reef system}
  \field{volume}{116}
  \field{journaltitle}{Journal of Geophysical Research: Oceans}
  \field{year}{2011}
\endentry

\entry{taebi2012numerical}{article}{}
  \name{author}{5}{}{%
    {{}%
     {Taebi}{T.}%
     {Soheila}{S.}%
     {}{}%
     {}{}}%
    {{}%
     {Lowe}{L.}%
     {Ryan~J}{R.~J.}%
     {}{}%
     {}{}}%
    {{}%
     {Pattiaratchi}{P.}%
     {Charitha~B}{C.~B.}%
     {}{}%
     {}{}}%
    {{}%
     {Ivey}{I.}%
     {Greg~N}{G.~N.}%
     {}{}%
     {}{}}%
    {{}%
     {Symonds}{S.}%
     {Graham}{G.}%
     {}{}%
     {}{}}%
  }
  \list{publisher}{1}{%
    {Springer}%
  }
  \strng{namehash}{TS+1}
  \strng{fullhash}{TSLRJPCBIGNSG1}
  \field{labelyear}{2012}
  \field{sortinit}{T}
  \field{number}{4}
  \field{pages}{585\bibrangedash 602}
  \field{title}{A numerical study of the dynamics of the wave-driven
  circulation within a fringing reef system}
  \field{volume}{62}
  \field{journaltitle}{Ocean Dynamics}
  \field{year}{2012}
\endentry

\entry{taillandier2004controlling}{article}{}
  \name{author}{4}{}{%
    {{}%
     {Taillandier}{T.}%
     {Vincent}{V.}%
     {}{}%
     {}{}}%
    {{}%
     {Echevin}{E.}%
     {Vincent}{V.}%
     {}{}%
     {}{}}%
    {{}%
     {Mortier}{M.}%
     {Laurent}{L.}%
     {}{}%
     {}{}}%
    {{}%
     {Devenon}{D.}%
     {Jean-Luc}{J.-L.}%
     {}{}%
     {}{}}%
  }
  \list{publisher}{1}{%
    {Springer}%
  }
  \strng{namehash}{TV+1}
  \strng{fullhash}{TVEVMLDJL1}
  \field{labelyear}{2004}
  \field{sortinit}{T}
  \field{number}{2}
  \field{pages}{284\bibrangedash 298}
  \field{title}{Controlling boundary conditions with a four-dimensional
  variational data-assimilation method in a non-stratified open coastal model}
  \field{volume}{54}
  \field{journaltitle}{Ocean Dynamics}
  \field{year}{2004}
\endentry

\entry{thevenaz1998pyramid}{article}{}
  \name{author}{3}{}{%
    {{}%
     {Thevenaz}{T.}%
     {P.}{P.}%
     {}{}%
     {}{}}%
    {{}%
     {Ruttimann}{R.}%
     {U.E.}{U.}%
     {}{}%
     {}{}}%
    {{}%
     {Unser}{U.}%
     {M.}{M.}%
     {}{}%
     {}{}}%
  }
  \list{publisher}{1}{%
    {IEEE}%
  }
  \strng{namehash}{TPRUUM1}
  \strng{fullhash}{TPRUUM1}
  \field{labelyear}{1998}
  \field{sortinit}{T}
  \field{number}{1}
  \field{pages}{27\bibrangedash 41}
  \field{title}{A pyramid approach to subpixel registration based on intensity}
  \field{volume}{7}
  \field{journaltitle}{IEEE transactions on image processing}
  \field{year}{1998}
\endentry

\entry{tympakianaki2015c}{article}{}
  \name{author}{3}{}{%
    {{}%
     {Tympakianaki}{T.}%
     {A.}{A.}%
     {}{}%
     {}{}}%
    {{}%
     {Koutsopoulos}{K.}%
     {H.N.}{H.}%
     {}{}%
     {}{}}%
    {{}%
     {Jenelius}{J.}%
     {E.}{E.}%
     {}{}%
     {}{}}%
  }
  \list{publisher}{1}{%
    {Elsevier}%
  }
  \strng{namehash}{TAKHJE1}
  \strng{fullhash}{TAKHJE1}
  \field{labelyear}{2015}
  \field{sortinit}{T}
  \field{pages}{231\bibrangedash 245}
  \field{title}{c-SPSA: Cluster-wise simultaneous perturbation stochastic
  approximation algorithm and its application to dynamic origin--destination
  matrix estimation}
  \field{volume}{55}
  \field{journaltitle}{Transportation Research Part C: Emerging Technologies}
  \field{year}{2015}
\endentry

\entry{tympakianaki2018robust}{article}{}
  \name{author}{3}{}{%
    {{}%
     {Tympakianaki}{T.}%
     {Athina}{A.}%
     {}{}%
     {}{}}%
    {{}%
     {Koutsopoulos}{K.}%
     {Haris~N}{H.~N.}%
     {}{}%
     {}{}}%
    {{}%
     {Jenelius}{J.}%
     {Erik}{E.}%
     {}{}%
     {}{}}%
  }
  \list{publisher}{1}{%
    {Elsevier}%
  }
  \strng{namehash}{TAKHNJE1}
  \strng{fullhash}{TAKHNJE1}
  \field{labelyear}{2018}
  \field{sortinit}{T}
  \field{pages}{57\bibrangedash 64}
  \field{title}{Robust SPSA algorithms for dynamic OD matrix estimation}
  \field{volume}{130}
  \field{journaltitle}{Procedia computer science}
  \field{year}{2018}
\endentry

\entry{unser1999splines}{article}{}
  \name{author}{1}{}{%
    {{}%
     {Unser}{U.}%
     {M.}{M.}%
     {}{}%
     {}{}}%
  }
  \list{publisher}{1}{%
    {IEEE}%
  }
  \strng{namehash}{UM1}
  \strng{fullhash}{UM1}
  \field{labelyear}{1999}
  \field{sortinit}{U}
  \field{number}{ARTICLE}
  \field{pages}{22\bibrangedash 38}
  \field{title}{Splines: A perfect fit for signal and image processing}
  \field{volume}{16}
  \field{journaltitle}{IEEE Signal processing magazine}
  \field{year}{1999}
\endentry

\entry{utreras2019stochastic}{article}{}
  \name{author}{4}{}{%
    {{}%
     {Utreras-Alarc{\'o}n}{U.-A.}%
     {A}{A}%
     {}{}%
     {}{}}%
    {{}%
     {Rivera-Tapia}{R.-T.}%
     {M}{M}%
     {}{}%
     {}{}}%
    {{}%
     {Niklitschek}{N.}%
     {S}{S}%
     {}{}%
     {}{}}%
    {{}%
     {Delgado}{D.}%
     {A}{A}%
     {}{}%
     {}{}}%
  }
  \list{publisher}{1}{%
    {Nature Publishing Group}%
  }
  \strng{namehash}{UAA+1}
  \strng{fullhash}{UAARTMNSDA1}
  \field{labelyear}{2019}
  \field{sortinit}{U}
  \field{number}{1}
  \field{pages}{1\bibrangedash 7}
  \field{title}{Stochastic optimization on complex variables and pure-state
  quantum tomography}
  \field{volume}{9}
  \field{journaltitle}{Scientific reports}
  \field{year}{2019}
\endentry

\entry{vidard2015nemotam}{article}{}
  \name{author}{3}{}{%
    {{}%
     {Vidard}{V.}%
     {Arthur}{A.}%
     {}{}%
     {}{}}%
    {{}%
     {Bouttier}{B.}%
     {Pierre-Antoine}{P.-A.}%
     {}{}%
     {}{}}%
    {{}%
     {Vigilant}{V.}%
     {Franck}{F.}%
     {}{}%
     {}{}}%
  }
  \strng{namehash}{VABPAVF1}
  \strng{fullhash}{VABPAVF1}
  \field{labelyear}{2015}
  \field{sortinit}{V}
  \field{title}{NEMOTAM: tangent and adjoint models for the ocean modelling
  platform NEMO}
  \field{year}{2015}
\endentry

\entry{viehman2018understanding}{article}{}
  \name{author}{6}{}{%
    {{}%
     {Viehman}{V.}%
     {T~Shay}{T.~S.}%
     {}{}%
     {}{}}%
    {{}%
     {Hench}{H.}%
     {James~L}{J.~L.}%
     {}{}%
     {}{}}%
    {{}%
     {Griffin}{G.}%
     {Sean~P}{S.~P.}%
     {}{}%
     {}{}}%
    {{}%
     {Malhotra}{M.}%
     {Amit}{A.}%
     {}{}%
     {}{}}%
    {{}%
     {Egan}{E.}%
     {Katharine}{K.}%
     {}{}%
     {}{}}%
    {{}%
     {Halpin}{H.}%
     {Patrick~N}{P.~N.}%
     {}{}%
     {}{}}%
  }
  \strng{namehash}{VTS+1}
  \strng{fullhash}{VTSHJLGSPMAEKHPN1}
  \field{labelyear}{2018}
  \field{sortinit}{V}
  \field{pages}{135\bibrangedash 150}
  \field{title}{Understanding differential patterns in coral reef recovery:
  chronic hydrodynamic disturbance as a limiting mechanism for coral
  colonization}
  \field{volume}{605}
  \field{journaltitle}{Marine Ecology Progress Series}
  \field{year}{2018}
\endentry

\entry{wada2013stopping}{inproceedings}{}
  \name{author}{2}{}{%
    {{}%
     {Wada}{W.}%
     {Takayuki}{T.}%
     {}{}%
     {}{}}%
    {{}%
     {Fujisaki}{F.}%
     {Yasumasa}{Y.}%
     {}{}%
     {}{}}%
  }
  \list{organization}{1}{%
    {IEEE}%
  }
  \strng{namehash}{WTFY1}
  \strng{fullhash}{WTFY1}
  \field{labelyear}{2013}
  \field{sortinit}{W}
  \field{booktitle}{2013 European Control Conference (ECC)}
  \field{pages}{644\bibrangedash 649}
  \field{title}{A stopping rule for simultaneous perturbation stochastic
  approximation}
  \field{year}{2013}
\endentry

\entry{wikle2007bayesian}{article}{}
  \name{author}{2}{}{%
    {{}%
     {Wikle}{W.}%
     {Christopher~K}{C.~K.}%
     {}{}%
     {}{}}%
    {{}%
     {Berliner}{B.}%
     {L~Mark}{L.~M.}%
     {}{}%
     {}{}}%
  }
  \list{publisher}{1}{%
    {Elsevier}%
  }
  \strng{namehash}{WCKBLM1}
  \strng{fullhash}{WCKBLM1}
  \field{labelyear}{2007}
  \field{sortinit}{W}
  \field{number}{1-2}
  \field{pages}{1\bibrangedash 16}
  \field{title}{A Bayesian tutorial for data assimilation}
  \field{volume}{230}
  \field{journaltitle}{Physica D: Nonlinear Phenomena}
  \field{year}{2007}
\endentry

\entry{wolfe1969convergence}{article}{}
  \name{author}{1}{}{%
    {{}%
     {Wolfe}{W.}%
     {P.}{P.}%
     {}{}%
     {}{}}%
  }
  \list{publisher}{1}{%
    {SIAM}%
  }
  \strng{namehash}{WP1}
  \strng{fullhash}{WP1}
  \field{labelyear}{1969}
  \field{sortinit}{W}
  \field{number}{2}
  \field{pages}{226\bibrangedash 235}
  \field{title}{Convergence conditions for ascent methods}
  \field{volume}{11}
  \field{journaltitle}{SIAM review}
  \field{year}{1969}
\endentry

\entry{xu1998direct}{article}{}
  \name{author}{1}{}{%
    {{}%
     {Xu}{X.}%
     {Zhigang}{Z.}%
     {}{}%
     {}{}}%
  }
  \strng{namehash}{XZ1}
  \strng{fullhash}{XZ1}
  \field{labelyear}{1998}
  \field{sortinit}{X}
  \field{number}{6}
  \field{pages}{1379\bibrangedash 1399}
  \field{title}{A direct inverse method for inferring open boundary conditions
  of a finite-element linear harmonic ocean circulation model}
  \field{volume}{15}
  \field{journaltitle}{Journal of Atmospheric and Oceanic Technology}
  \field{year}{1998}
\endentry

\entry{yao2012m}{article}{}
  \name{author}{5}{}{%
    {{}%
     {Yao}{Y.}%
     {Zhigang}{Z.}%
     {}{}%
     {}{}}%
    {{}%
     {He}{H.}%
     {Ruoying}{R.}%
     {}{}%
     {}{}}%
    {{}%
     {Bao}{B.}%
     {Xianwen}{X.}%
     {}{}%
     {}{}}%
    {{}%
     {Wu}{W.}%
     {Dexing}{D.}%
     {}{}%
     {}{}}%
    {{}%
     {Song}{S.}%
     {Jun}{J.}%
     {}{}%
     {}{}}%
  }
  \list{publisher}{1}{%
    {Springer}%
  }
  \strng{namehash}{YZ+1}
  \strng{fullhash}{YZHRBXWDSJ1}
  \field{labelyear}{2012}
  \field{sortinit}{Y}
  \field{number}{5}
  \field{pages}{753\bibrangedash 769}
  \field{title}{M 2 tidal dynamics in Bohai and Yellow Seas: a hybrid data
  assimilative modeling study}
  \field{volume}{62}
  \field{journaltitle}{Ocean Dynamics}
  \field{year}{2012}
\endentry

\entry{zawada2010topographic}{article}{}
  \name{author}{3}{}{%
    {{}%
     {Zawada}{Z.}%
     {David~G}{D.~G.}%
     {}{}%
     {}{}}%
    {{}%
     {Piniak}{P.}%
     {Gregory~A}{G.~A.}%
     {}{}%
     {}{}}%
    {{}%
     {Hearn}{H.}%
     {Clifford~J}{C.~J.}%
     {}{}%
     {}{}}%
  }
  \list{publisher}{1}{%
    {Wiley Online Library}%
  }
  \strng{namehash}{ZDGPGAHCJ1}
  \strng{fullhash}{ZDGPGAHCJ1}
  \field{labelyear}{2010}
  \field{sortinit}{Z}
  \field{number}{14}
  \field{title}{Topographic complexity and roughness of a tropical benthic
  seascape}
  \field{volume}{37}
  \field{journaltitle}{Geophysical research letters}
  \field{year}{2010}
\endentry

\entry{zhang2012combined}{article}{}
  \name{author}{4}{}{%
    {{}%
     {Zhang}{Z.}%
     {Zhenlin}{Z.}%
     {}{}%
     {}{}}%
    {{}%
     {Falter}{F.}%
     {James}{J.}%
     {}{}%
     {}{}}%
    {{}%
     {Lowe}{L.}%
     {Ryan}{R.}%
     {}{}%
     {}{}}%
    {{}%
     {Ivey}{I.}%
     {Greg}{G.}%
     {}{}%
     {}{}}%
  }
  \list{publisher}{1}{%
    {Wiley Online Library}%
  }
  \strng{namehash}{ZZ+1}
  \strng{fullhash}{ZZFJLRIG1}
  \field{labelyear}{2012}
  \field{sortinit}{Z}
  \field{number}{C4}
  \field{title}{The combined influence of hydrodynamic forcing and
  calcification on the spatial distribution of alkalinity in a coral reef
  system}
  \field{volume}{117}
  \field{journaltitle}{Journal of Geophysical Research: Oceans}
  \field{year}{2012}
\endentry

\entry{zhu2002modified}{article}{}
  \name{author}{2}{}{%
    {{}%
     {Zhu}{Z.}%
     {Xun}{X.}%
     {}{}%
     {}{}}%
    {{}%
     {Spall}{S.}%
     {James~C}{J.~C.}%
     {}{}%
     {}{}}%
  }
  \list{publisher}{1}{%
    {Wiley Online Library}%
  }
  \strng{namehash}{ZXSJC1}
  \strng{fullhash}{ZXSJC1}
  \field{labelyear}{2002}
  \field{sortinit}{Z}
  \field{number}{5}
  \field{pages}{397\bibrangedash 409}
  \field{title}{A modified second-order SPSA optimization algorithm for finite
  samples}
  \field{volume}{16}
  \field{journaltitle}{International Journal of Adaptive Control and Signal
  Processing}
  \field{year}{2002}
\endentry

\entry{zimmerman1978topographic}{article}{}
  \name{author}{1}{}{%
    {{}%
     {Zimmerman}{Z.}%
     {JTF}{J.}%
     {}{}%
     {}{}}%
  }
  \list{publisher}{1}{%
    {Taylor \& Francis}%
  }
  \strng{namehash}{ZJ1}
  \strng{fullhash}{ZJ1}
  \field{labelyear}{1978}
  \field{sortinit}{Z}
  \field{number}{1}
  \field{pages}{35\bibrangedash 47}
  \field{title}{Topographic generation of residual circulation by oscillatory
  (tidal) currents}
  \field{volume}{11}
  \field{journaltitle}{Geophysical \& Astrophysical Fluid Dynamics}
  \field{year}{1978}
\endentry

\entry{zimmerman1981dynamics}{article}{}
  \name{author}{1}{}{%
    {{}%
     {Zimmerman}{Z.}%
     {JTF}{J.}%
     {}{}%
     {}{}}%
  }
  \list{publisher}{1}{%
    {Nature Publishing Group}%
  }
  \strng{namehash}{ZJ1}
  \strng{fullhash}{ZJ1}
  \field{labelyear}{1981}
  \field{sortinit}{Z}
  \field{number}{5807}
  \field{pages}{549\bibrangedash 555}
  \field{title}{Dynamics, diffusion and geomorphological significance of tidal
  residual eddies}
  \field{volume}{290}
  \field{journaltitle}{Nature}
  \field{year}{1981}
\endentry

\lossort
\endlossort

\endinput
