\relax 
\bibstyle{biblatex}
\bibdata{Main_file-blx,Intro_these/Bib_intro,Etat_de_lart/Lagon_et_deferlement/Bib_lagon_et_deferlement,Etat_de_lart/Circulation_a_Ouano/Bib_Ouano,Etat_de_lart/Assimilation_generale/Bib_assimilation,Etat_de_lart/SPSA/Bib_SPSA,Coeur_de_these/Materiel_methodes/Campagne_2016/Campagne_2016,Coeur_de_these/Materiel_methodes/Methode_SPM_CROCO/Bib_Methode_SPM_CROCO,Coeur_de_these/Resultats/Conditions_bords_SPM/Bib_Conditions_bords_SPM,Coeur_de_these/Resultats/Flux_barriere/Bib_Flux_barriere,Coeur_de_these/Resultats/Impact_non_linearite/Bib_Impact_non_linearite,Discussion/Discussion,Conclusion/Bib_Conclusion}
\citation{biblatex-control}
\@writefile{toc}{\boolfalse {citerequest}\boolfalse {citetracker}\boolfalse {pagetracker}\boolfalse {backtracker}\relax }
\@writefile{lof}{\boolfalse {citerequest}\boolfalse {citetracker}\boolfalse {pagetracker}\boolfalse {backtracker}\relax }
\@writefile{lot}{\boolfalse {citerequest}\boolfalse {citetracker}\boolfalse {pagetracker}\boolfalse {backtracker}\relax }
\citation{chevalier2015impact}
\citation{zimmerman1981dynamics}
\citation{douillet1998tidal}
\citation{dronkers1982some}
\citation{jones2008modification}
\citation{feng2016storm}
\citation{jay1999comparison}
\citation{foreman2009versatile}
\citation{kraines1998wind}
\citation{bonneton2007tidal}
\citation{chevalier2015impact}
\@writefile{toc}{\defcounter {refsection}{0}\relax }\@writefile{toc}{\contentsline {part}{I\hspace  {1em}Introduction}{2}}
\@writefile{toc}{\defcounter {refsection}{0}\relax }\@writefile{toc}{\contentsline {section}{\numberline {1}Impact of the waves and the tides on the lagoon}{2}}
\abx@aux@page{1}{2}
\abx@aux@page{2}{2}
\abx@aux@page{3}{2}
\abx@aux@page{4}{2}
\abx@aux@page{5}{2}
\abx@aux@page{6}{2}
\abx@aux@page{7}{2}
\abx@aux@page{8}{2}
\abx@aux@page{9}{2}
\abx@aux@page{10}{3}
\abx@aux@page{11}{3}
\@writefile{toc}{\defcounter {refsection}{0}\relax }\@writefile{toc}{\contentsline {section}{\numberline {2}Coupling of numerical model with data}{3}}
\citation{munk1948adjustment}
\citation{longuet1960changes}
\citation{longuet1962radiation}
\citation{longuet1964radiation}
\citation{mellor2003three}
\citation{hasselmann1971mass}
\@writefile{toc}{\defcounter {refsection}{0}\relax }\@writefile{toc}{\contentsline {part}{II\hspace  {1em}State of the art}{4}}
\@writefile{toc}{\defcounter {refsection}{0}\relax }\@writefile{toc}{\contentsline {section}{\numberline {3}Wave-breaking and lagoon}{4}}
\abx@aux@page{12}{4}
\@writefile{toc}{\defcounter {refsection}{0}\relax }\@writefile{toc}{\contentsline {subsection}{\numberline {3.1}Radiation stress}{4}}
\abx@aux@page{13}{4}
\abx@aux@page{14}{4}
\abx@aux@page{15}{4}
\abx@aux@page{16}{4}
\abx@aux@page{17}{4}
\newlabel{Systemequationswavecoupling}{{1}{4}}
\citation{longuet1964radiation}
\citation{longuet1964radiation}
\citation{davies1994examining}
\newlabel{Systemdecomposition}{{6}{5}}
\newlabel{Radiationstresssystem}{{9}{5}}
\abx@aux@page{18}{5}
\abx@aux@page{19}{5}
\newlabel{Radiationstresstensor}{{14}{5}}
\newlabel{Frictionatthebottom}{{15}{5}}
\citation{gourlay2005wave}
\citation{monismith2007hydrodynamics}
\citation{taebi2011nearshore}
\citation{dollar1982wave}
\citation{longuet1964radiation}
\citation{bonneton2007tidal}
\abx@aux@page{20}{6}
\@writefile{toc}{\defcounter {refsection}{0}\relax }\@writefile{toc}{\contentsline {subsection}{\numberline {3.2}Wave set-up}{6}}
\abx@aux@page{21}{6}
\abx@aux@page{22}{6}
\abx@aux@page{23}{6}
\abx@aux@page{24}{6}
\abx@aux@page{25}{6}
\@writefile{toc}{\defcounter {refsection}{0}\relax }\@writefile{toc}{\contentsline {subsection}{\numberline {3.3}Tidal modulation of the wave-setup and induced current}{6}}
\abx@aux@page{26}{6}
\newlabel{Radiationstressvalue}{{16}{6}}
\newlabel{Radiationstressbreaking}{{17}{6}}
\newlabel{tidalmodulationwavebreakingfigure}{{3.3}{7}}
\@writefile{lof}{\defcounter {refsection}{0}\relax }\@writefile{lof}{\contentsline {figure}{\numberline {1}{\ignorespaces Illustration of the displacement of the breaking point and variation of the total breaking length due to the tidal modulation.}}{7}}
\newlabel{gradientelevation}{{18}{7}}
\newlabel{elevationatreef}{{19}{7}}
\newlabel{depthequation}{{20}{7}}
\newlabel{depthofbreaking}{{21}{7}}
\citation{symonds1995wave}
\citation{hearn1999wave}
\citation{gourlay2005wave}
\citation{symonds1995wave}
\citation{hearn1999wave}
\citation{csanady1981circulation}
\newlabel{illustrativesetup}{{22}{8}}
\newlabel{modulationwavesetup}{{23}{8}}
\abx@aux@page{27}{8}
\abx@aux@page{28}{8}
\abx@aux@page{29}{8}
\citation{gourlay2005wave}
\citation{longuet1960changes}
\citation{longuet1962radiation}
\citation{longuet1964radiation}
\citation{munk1948adjustment}
\citation{longuet1964radiation}
\citation{mellor2003three}
\abx@aux@page{30}{9}
\@writefile{toc}{\defcounter {refsection}{0}\relax }\@writefile{toc}{\contentsline {subsection}{\numberline {3.4}The rest}{9}}
\abx@aux@page{31}{9}
\abx@aux@page{32}{9}
\abx@aux@page{33}{9}
\abx@aux@page{34}{9}
\abx@aux@page{35}{9}
\newlabel{Radiationstresstensor}{{24}{9}}
\abx@aux@page{36}{9}
\citation{chevalier2015hydrodynamics}
\citation{chevalier2015impact}
\citation{chevalier2015hydrodynamics}
\citation{chevalier2015hydrodynamics}
\citation{chevalier2015impact}
\citation{chevalier2015impact}
\citation{chevalier2015hydrodynamics}
\citation{chevalier2015hydrodynamics}
\citation{chevalier2015impact}
\@writefile{lof}{\defcounter {refsection}{0}\relax }\@writefile{lof}{\contentsline {figure}{\numberline {2}{\ignorespaces Linear link between the transport through the coral reef and the wave amplitude in Toliara lagoon in Madagascar. Taken from \cite {chevalier2015hydrodynamics}}}{10}}
\newlabel{LinkwaveflowTolliara}{{2}{10}}
\newlabel{Radiationstressnontensor}{{25}{10}}
\@writefile{toc}{\defcounter {refsection}{0}\relax }\@writefile{toc}{\contentsline {subsection}{\numberline {3.5}Radiation stress and flow over reefs}{10}}
\abx@aux@page{37}{10}
\abx@aux@page{38}{10}
\abx@aux@page{45}{10}
\citation{hearn1999wave}
\citation{gourlay2005wave}
\citation{gourlay2005wave}
\citation{gourlay2005wave}
\citation{hearn1999wave}
\citation{rogers2015field}
\citation{munk1948adjustment}
\citation{dollar1982wave}
\citation{viehman2018understanding}
\citation{lentz2018coral}
\@writefile{lof}{\defcounter {refsection}{0}\relax }\@writefile{lof}{\contentsline {figure}{\numberline {3}{\ignorespaces Linear link between the water level in the lagoon and the cross reef flux in the Ouano lagoon. Taken from \cite {chevalier2015impact}}}{11}}
\newlabel{LinkelevationflowOuano}{{3}{11}}
\@writefile{lof}{\defcounter {refsection}{0}\relax }\@writefile{lof}{\contentsline {figure}{\numberline {4}{\ignorespaces Scheme of the water fluxes in the Toliara lagoon linked to the tide and the wave-driven currents. Taken from \cite {chevalier2015hydrodynamics}}}{11}}
\newlabel{SchemefluxesToliara}{{4}{11}}
\abx@aux@page{46}{11}
\abx@aux@page{47}{11}
\@writefile{toc}{\defcounter {refsection}{0}\relax }\@writefile{toc}{\contentsline {subsubsection}{\numberline {3.5.1}Parametrization and effect of friction}{11}}
\abx@aux@page{50}{11}
\abx@aux@page{51}{11}
\citation{rogers2015field}
\citation{rogers2015field}
\citation{purkis2018remote}
\citation{zawada2010topographic}
\citation{nunes2008observations}
\citation{rogers2018connecting}
\citation{chirayath2016drones}
\citation{chirayath2016drones}
\citation{chirayath2016drones}
\citation{falter2004mass}
\citation{lowe2005oscillatory}
\@writefile{lof}{\defcounter {refsection}{0}\relax }\@writefile{lof}{\contentsline {figure}{\numberline {5}{\ignorespaces Link between the subsidence parameter and the flow above the reef. Taken from \cite {gourlay2005wave}}}{12}}
\newlabel{subsidencecontrolflow}{{5}{12}}
\@writefile{lof}{\defcounter {refsection}{0}\relax }\@writefile{lof}{\contentsline {figure}{\numberline {6}{\ignorespaces Pictures and bathymetry of a Spurs and Grooves formation. Taken from \cite {rogers2015field}}}{12}}
\newlabel{spursgroovesRogers}{{6}{12}}
\abx@aux@page{52}{12}
\abx@aux@page{53}{12}
\abx@aux@page{54}{12}
\abx@aux@page{55}{12}
\abx@aux@page{58}{12}
\abx@aux@page{59}{12}
\abx@aux@page{60}{12}
\abx@aux@page{61}{12}
\abx@aux@page{62}{12}
\@writefile{toc}{\defcounter {refsection}{0}\relax }\@writefile{toc}{\contentsline {subsubsection}{\numberline {3.5.2}Flows above and through coral reefs}{12}}
\abx@aux@page{65}{12}
\abx@aux@page{66}{12}
\citation{lowe2005oscillatory}
\citation{lowe2005oscillatory}
\citation{lentz2018coral}
\citation{rogers2018connecting}
\citation{nunes2008observations}
\@writefile{lof}{\defcounter {refsection}{0}\relax }\@writefile{lof}{\contentsline {figure}{\numberline {7}{\ignorespaces Example of depth and fine scale reconstruction with the fluid lensing technique. Taken from \cite {chirayath2016drones}}}{13}}
\newlabel{Fluidlensesexample}{{7}{13}}
\@writefile{lof}{\defcounter {refsection}{0}\relax }\@writefile{lof}{\contentsline {figure}{\numberline {8}{\ignorespaces Illustration of the evolution of the root-mean squared wave velocity on the depth in a canopy flow. Taken from \cite {lowe2005oscillatory}}}{13}}
\newlabel{canopyflowLowe}{{8}{13}}
\abx@aux@page{69}{13}
\abx@aux@page{70}{13}
\@writefile{toc}{\defcounter {refsection}{0}\relax }\@writefile{toc}{\contentsline {subsection}{\numberline {3.6}Parametrization of the friction}{13}}
\abx@aux@page{71}{13}
\citation{osorio2019drag}
\citation{osorio2019drag}
\citation{osorio2019drag}
\citation{baldock2014impact}
\citation{rogers2018connecting}
\newlabel{EvolutiondraginertialKeuleganCarpenternumber}{{3.6}{14}}
\@writefile{lof}{\defcounter {refsection}{0}\relax }\@writefile{lof}{\contentsline {figure}{\numberline {9}{\ignorespaces Evolution of the friction coefficient for drag and inertial forces depending on the KC number. Red circles are from laboratory experiments and black dots from numerical experiments. Taken from \cite {osorio2019drag}}}{14}}
\abx@aux@page{72}{14}
\newlabel{Frictioncoralosorio2019}{{26}{14}}
\newlabel{KeuleganCarpenternumber}{{27}{14}}
\abx@aux@page{75}{14}
\citation{hearn1999wave}
\citation{bonneton2007tidal}
\citation{taebi2012numerical}
\citation{taebi2011nearshore}
\citation{hearn1999wave}
\citation{taebi2011nearshore}
\citation{taebi2012numerical}
\citation{taebi2012numerical}
\citation{taebi2011nearshore}
\citation{taebi2012numerical}
\abx@aux@page{76}{15}
\@writefile{toc}{\defcounter {refsection}{0}\relax }\@writefile{toc}{\contentsline {subsection}{\numberline {3.7}Things to check with friction}{15}}
\abx@aux@page{77}{15}
\abx@aux@page{78}{15}
\@writefile{toc}{\defcounter {refsection}{0}\relax }\@writefile{toc}{\contentsline {subsection}{\numberline {3.8}Two dimensional modelling of the flow}{15}}
\abx@aux@page{79}{15}
\abx@aux@page{80}{15}
\abx@aux@page{81}{15}
\abx@aux@page{82}{15}
\abx@aux@page{85}{15}
\abx@aux@page{86}{15}
\citation{taebi2012numerical}
\citation{taebi2012numerical}
\citation{monismith2007hydrodynamics}
\citation{taebi2011nearshore}
\citation{taebi2011nearshore}
\citation{rogers2017coupled}
\citation{rogers2017coupled}
\citation{monismith2007hydrodynamics}
\citation{munk1948adjustment}
\newlabel{Taebisetup2012}{{3.8}{16}}
\@writefile{lof}{\defcounter {refsection}{0}\relax }\@writefile{lof}{\contentsline {figure}{\numberline {10}{\ignorespaces Graph of the wave height (a), wave set-up (b) and net currents (c) from the modelling of \cite {taebi2012numerical}}}{16}}
\newlabel{Taebisetup2012radial}{{3.8}{16}}
\@writefile{lof}{\defcounter {refsection}{0}\relax }\@writefile{lof}{\contentsline {figure}{\numberline {11}{\ignorespaces Cross-shore and alongshore momentum terms for the radials defined in figure 3.8\hbox {}. a,b,e,f are for northern and southern reefs and c,d for a pass. The solid black line is the depth. Taken from \cite {taebi2012numerical}}}{16}}
\abx@aux@page{89}{16}
\citation{fringer2019future}
\citation{taebi2012numerical}
\citation{rogers2016wave}
\citation{zhang2012combined}
\citation{rogers2017coupled}
\citation{chevalier2015hydrodynamics}
\citation{chevalier2015impact}
\@writefile{lof}{\defcounter {refsection}{0}\relax }\@writefile{lof}{\contentsline {figure}{\numberline {12}{\ignorespaces Variations of cross reef currents according to water level elevations and height of the waves. Taken from \cite {taebi2011nearshore}}}{17}}
\newlabel{Waterlevelvscrossreefcurrents}{{12}{17}}
\@writefile{lof}{\defcounter {refsection}{0}\relax }\@writefile{lof}{\contentsline {figure}{\numberline {13}{\ignorespaces Variation of the radiation stress and other variables around an atoll determined by a model. Taken from \cite {rogers2017coupled}}}{17}}
\newlabel{Radstressatoolrogers2017}{{13}{17}}
\abx@aux@page{94}{17}
\abx@aux@page{95}{17}
\@writefile{toc}{\defcounter {refsection}{0}\relax }\@writefile{toc}{\contentsline {subsection}{\numberline {3.9}Numerical models for lagoons}{17}}
\abx@aux@page{96}{17}
\abx@aux@page{97}{17}
\abx@aux@page{98}{17}
\abx@aux@page{99}{17}
\abx@aux@page{100}{17}
\abx@aux@page{101}{17}
\abx@aux@page{102}{17}
\citation{chevalier2015impact}
\citation{sous2019wave}
\citation{jouon2006calculations}
\citation{ouillon2010circulation}
\citation{marchesiello2010coastal}
\citation{ouillon2005enhancement}
\citation{jouon2006calculations}
\citation{le2010hydrography}
\citation{ganachaud2010observed}
\citation{lefevre2010weather}
\citation{cuif2014wind}
\citation{fuchs2012modelling}
\citation{faure2010modelling}
\@writefile{toc}{\defcounter {refsection}{0}\relax }\@writefile{toc}{\contentsline {section}{\numberline {4}Circulation du lagon de Ouano}{18}}
\abx@aux@page{103}{18}
\abx@aux@page{104}{18}
\@writefile{toc}{\defcounter {refsection}{0}\relax }\@writefile{toc}{\contentsline {subsection}{\numberline {4.1}Circulation in southern New Caledonia}{18}}
\abx@aux@page{105}{18}
\abx@aux@page{106}{18}
\abx@aux@page{107}{18}
\abx@aux@page{108}{18}
\abx@aux@page{109}{18}
\abx@aux@page{110}{18}
\abx@aux@page{111}{18}
\abx@aux@page{112}{18}
\citation{rogers2016thermodynamics}
\citation{sous2017circulation}
\citation{sous2017circulation}
\citation{sous2017circulation}
\citation{chevalier2015hydrodynamics}
\citation{sous2017circulation}
\citation{sous2017circulation}
\citation{sous2017circulation}
\abx@aux@page{113}{19}
\abx@aux@page{114}{19}
\abx@aux@page{115}{19}
\@writefile{toc}{\defcounter {refsection}{0}\relax }\@writefile{toc}{\contentsline {subsection}{\numberline {4.2}Circulation in the Ouano Lagoon}{19}}
\abx@aux@page{116}{19}
\abx@aux@page{117}{19}
\@writefile{lof}{\defcounter {refsection}{0}\relax }\@writefile{lof}{\contentsline {figure}{\numberline {14}{\ignorespaces The four main circulation patterns observed in the Ouano lagoon during the 2016 campaign. Taken from \cite {sous2017circulation}}}{19}}
\newlabel{CirculationpatternOuano}{{14}{19}}
\abx@aux@page{120}{19}
\abx@aux@page{121}{19}
\citation{sous2019wave}
\citation{sous2019wave}
\citation{sous2019wave}
\@writefile{lof}{\defcounter {refsection}{0}\relax }\@writefile{lof}{\contentsline {figure}{\numberline {15}{\ignorespaces Example of wind, current, and wave forcing during an episode of a) Classical Pattern and b) Tenia reversal Pattern. Taken from \cite {sous2017circulation}}}{20}}
\newlabel{CirculationpatternCPReversedTeniaOuano}{{15}{20}}
\@writefile{lof}{\defcounter {refsection}{0}\relax }\@writefile{lof}{\contentsline {figure}{\numberline {16}{\ignorespaces Classification of the behaviour of the North pass according to external factors. Taken from the report of F. Locatelli}}{20}}
\newlabel{Locatellireport}{{16}{20}}
\abx@aux@page{124}{20}
\citation{sous2019wave}
\citation{sous2019wave}
\citation{sous2017circulation}
\citation{sous2017circulation}
\citation{bonneton2007tidal}
\@writefile{lof}{\defcounter {refsection}{0}\relax }\@writefile{lof}{\contentsline {figure}{\numberline {17}{\ignorespaces Wave transformation according to the frequency band and the tidal stage. Taken from \cite {sous2019wave} }}{21}}
\newlabel{WavetransformOuano}{{17}{21}}
\@writefile{lof}{\defcounter {refsection}{0}\relax }\@writefile{lof}{\contentsline {figure}{\numberline {18}{\ignorespaces Currents,wind and wave condition during the 2016 campaign in the Ouano lagoon. Taken from \cite {sous2019wave}}}{21}}
\newlabel{WindwaveOuano2016}{{18}{21}}
\@writefile{lof}{\defcounter {refsection}{0}\relax }\@writefile{lof}{\contentsline {figure}{\numberline {19}{\ignorespaces Observation of the coral cover at low at tide a) over the barreer reef b) behind the reefs. Taken from \cite {sous2017circulation}}}{21}}
\newlabel{PictureCoralReef}{{19}{21}}
\abx@aux@page{131}{21}
\citation{bonneton2007tidal}
\citation{bonneton2007tidal}
\citation{bonneton2007tidal}
\citation{bonneton2007tidal}
\citation{bonneton2007tidal}
\citation{sasaki1958objective}
\@writefile{lof}{\defcounter {refsection}{0}\relax }\@writefile{lof}{\contentsline {figure}{\numberline {20}{\ignorespaces Tidal modulation of current and overelevation over the barreer reef in Abore. We see that the variations between tidal cycles are way stronger for the overelevation than they are for the velocity. I should look that up a little bit. Taken from \cite {bonneton2007tidal}}}{22}}
\newlabel{Tidalmodulationcrossreefflux}{{20}{22}}
\@writefile{lof}{\defcounter {refsection}{0}\relax }\@writefile{lof}{\contentsline {figure}{\numberline {21}{\ignorespaces Linear link between the difference of depth between the breaking point and the wave setup. Taken from \cite {bonneton2007tidal}}}{22}}
\newlabel{bonneton2007tidal}{{21}{22}}
\@writefile{lof}{\defcounter {refsection}{0}\relax }\@writefile{lof}{\contentsline {figure}{\numberline {22}{\ignorespaces Bathymetry of the Abor\IeC {\'e} reef. Taken from \cite {bonneton2007tidal}}}{22}}
\newlabel{Aborereefbathy}{{22}{22}}
\@writefile{toc}{\defcounter {refsection}{0}\relax }\@writefile{toc}{\contentsline {section}{\numberline {5}SPSA algorithm and data assimilation}{22}}
\abx@aux@page{137}{22}
\citation{hsu1999procedure}
\citation{sasaki1958objective}
\citation{egbert1994topex}
\citation{vidard2015nemotam}
\citation{bennett1982open}
\citation{proudman1925lxi}
\citation{taillandier2004controlling}
\citation{taillandier2004controlling}
\citation{lellouche1998data}
\abx@aux@page{138}{23}
\abx@aux@page{139}{23}
\abx@aux@page{140}{23}
\abx@aux@page{141}{23}
\@writefile{toc}{\defcounter {refsection}{0}\relax }\@writefile{toc}{\contentsline {subsection}{\numberline {5.1}Classical adjoint methods}{23}}
\abx@aux@page{142}{23}
\abx@aux@page{143}{23}
\citation{lynch1998hindcasting}
\citation{lynch1998hindcasting}
\citation{le1986variational}
\citation{devenon1990optimal}
\citation{taillandier2004controlling}
\citation{bennett1982open}
\citation{sasaki1958objective}
\citation{arango2003roms}
\@writefile{lof}{\defcounter {refsection}{0}\relax }\@writefile{lof}{\contentsline {figure}{\numberline {23}{\ignorespaces Exemple of descent of a cost function for a non-linear model. Taken from \cite {taillandier2004controlling}}}{24}}
\newlabel{Gradientdescenttaillandier}{{23}{24}}
\abx@aux@page{146}{24}
\@writefile{lof}{\defcounter {refsection}{0}\relax }\@writefile{lof}{\contentsline {figure}{\numberline {24}{\ignorespaces Example of the functioning of a data assimilation scheme with adjoint and tangent linear model. Taken from \cite {lynch1998hindcasting}}}{24}}
\newlabel{Exampleimprovingforcing}{{24}{24}}
\citation{le1986variational}
\citation{lynch1998hindcasting}
\citation{sasaki1970numericala}
\citation{bogden1996open}
\citation{bennett1982open}
\abx@aux@page{149}{25}
\abx@aux@page{150}{25}
\abx@aux@page{151}{25}
\abx@aux@page{152}{25}
\abx@aux@page{153}{25}
\abx@aux@page{154}{25}
\abx@aux@page{155}{25}
\@writefile{toc}{\defcounter {refsection}{0}\relax }\@writefile{toc}{\contentsline {subsection}{\numberline {5.2}Inverse modelling without adjoint}{25}}
\abx@aux@page{156}{25}
\@writefile{toc}{\defcounter {refsection}{0}\relax }\@writefile{toc}{\contentsline {subsection}{\numberline {5.3}Smoothing terms and regularization}{25}}
\abx@aux@page{157}{25}
\abx@aux@page{158}{25}
\citation{arango2003roms}
\citation{lynch1998hindcasting}
\citation{lynch1998hindcasting}
\citation{lynch1998hindcasting}
\citation{yao2012m}
\citation{yao2012m}
\citation{yao2012m}
\citation{sasaki1970numericala}
\citation{lellouche1998data}
\abx@aux@page{159}{26}
\abx@aux@page{160}{26}
\abx@aux@page{161}{26}
\@writefile{lof}{\defcounter {refsection}{0}\relax }\@writefile{lof}{\contentsline {figure}{\numberline {25}{\ignorespaces Fourier decomposition for the boundary forcings. Taken from \cite {lynch1998hindcasting}}}{26}}
\newlabel{Fourierdecomplynch1998}{{25}{26}}
\abx@aux@page{164}{26}
\abx@aux@page{167}{26}
\citation{devenon1990optimal}
\citation{bennett1982open}
\citation{moore2004comprehensive}
\citation{arango2003roms}
\citation{arango2003roms}
\citation{devenon1990optimal}
\citation{lellouche1998data}
\@writefile{lof}{\defcounter {refsection}{0}\relax }\@writefile{lof}{\contentsline {figure}{\numberline {26}{\ignorespaces Boundary conditions before and after data assimilation. Taken from \cite {yao2012m}}}{27}}
\newlabel{BoundarycondYao2012}{{26}{27}}
\abx@aux@page{168}{27}
\@writefile{toc}{\defcounter {refsection}{0}\relax }\@writefile{toc}{\contentsline {subsection}{\numberline {5.4}Boundary conditions determination}{27}}
\abx@aux@page{169}{27}
\abx@aux@page{170}{27}
\abx@aux@page{171}{27}
\abx@aux@page{172}{27}
\abx@aux@page{174}{27}
\abx@aux@page{175}{27}
\abx@aux@fnpage{173}{27}
\citation{devenon1990optimal}
\citation{bennett1982open}
\citation{bogden1996open}
\citation{taillandier2004controlling}
\citation{lynch1998hindcasting}
\citation{yao2012m}
\citation{marchesiello2001open}
\citation{bourret2005investigation}
\citation{bennett1982open}
\citation{devenon1990optimal}
\citation{yao2012m}
\citation{xu1998direct}
\citation{lynch1998hindcasting}
\citation{he2006barotropic}
\abx@aux@page{176}{28}
\abx@aux@page{177}{28}
\abx@aux@page{178}{28}
\abx@aux@page{179}{28}
\abx@aux@page{180}{28}
\abx@aux@page{181}{28}
\abx@aux@page{182}{28}
\abx@aux@page{183}{28}
\abx@aux@page{184}{28}
\abx@aux@page{185}{28}
\abx@aux@page{186}{28}
\abx@aux@page{187}{28}
\abx@aux@page{188}{28}
\abx@aux@page{189}{28}
\citation{arango2003roms}
\citation{bennett1982open}
\citation{giering1998recipes}
\citation{giering1998recipes}
\citation{giering1998recipes}
\citation{lellouche1998data}
\citation{giering1998recipes}
\citation{arango2003roms}
\citation{moore20134d}
\citation{yao2012m}
\citation{he2006barotropic}
\citation{lynch1998hindcasting}
\citation{xu1998direct}
\citation{fringer2019future}
\citation{devenon1990optimal}
\abx@aux@page{190}{29}
\@writefile{lof}{\defcounter {refsection}{0}\relax }\@writefile{lof}{\contentsline {figure}{\numberline {27}{\ignorespaces Image associated with the linear tangent and the adjoint model, taken from \cite {giering1998recipes}.}}{29}}
\newlabel{Adjointvariablesgiering}{{27}{29}}
\abx@aux@page{195}{29}
\abx@aux@page{196}{29}
\abx@aux@page{197}{29}
\abx@aux@page{198}{29}
\abx@aux@page{199}{29}
\abx@aux@page{200}{29}
\abx@aux@page{201}{29}
\abx@aux@page{202}{29}
\@writefile{toc}{\defcounter {refsection}{0}\relax }\@writefile{toc}{\contentsline {subsection}{\numberline {5.5}Coastal data assimilation}{29}}
\abx@aux@page{203}{29}
\abx@aux@fnpage{191}{29}
\abx@aux@fnpage{192}{29}
\citation{sasaki1958objective}
\citation{wikle2007bayesian}
\citation{he2006barotropic}
\citation{xu1998direct}
\abx@aux@page{204}{30}
\@writefile{toc}{\defcounter {refsection}{0}\relax }\@writefile{toc}{\contentsline {subsection}{\numberline {5.6}Uncertainties in data assimilation}{30}}
\abx@aux@page{205}{30}
\abx@aux@page{206}{30}
\@writefile{toc}{\defcounter {refsection}{0}\relax }\@writefile{toc}{\contentsline {subsection}{\numberline {5.7}Coupling of spectral model with standard models}{30}}
\abx@aux@page{207}{30}
\abx@aux@page{208}{30}
\citation{yao2012m}
\citation{taillandier2004controlling}
\citation{utreras2019stochastic}
\citation{utreras2019stochastic}
\citation{utreras2019stochastic}
\citation{hoang2014low}
\abx@aux@page{209}{31}
\abx@aux@page{210}{31}
\@writefile{toc}{\defcounter {refsection}{0}\relax }\@writefile{toc}{\contentsline {section}{\numberline {6}Simultaneous Perturbations Stochastic Approximation}{31}}
\@writefile{toc}{\defcounter {refsection}{0}\relax }\@writefile{toc}{\contentsline {subsection}{\numberline {6.1}SPSA and complex values}{31}}
\abx@aux@page{211}{31}
\@writefile{lof}{\defcounter {refsection}{0}\relax }\@writefile{lof}{\contentsline {figure}{\numberline {28}{\ignorespaces Comparison of the efficiency of the CSPSA with the standard SPSA for a problem with complex arguments. Taken from \cite {utreras2019stochastic})}}{31}}
\newlabel{descentCSPSA}{{28}{31}}
\citation{antoniou2015w}
\citation{tympakianaki2015c}
\citation{spall1998implementation}
\citation{tympakianaki2018robust}
\@writefile{toc}{\defcounter {refsection}{0}\relax }\@writefile{toc}{\contentsline {subsection}{\numberline {6.2}SPSA and high-dimensional problems}{32}}
\abx@aux@page{214}{32}
\abx@aux@page{215}{32}
\abx@aux@page{216}{32}
\@writefile{toc}{\defcounter {refsection}{0}\relax }\@writefile{toc}{\contentsline {subsubsection}{\numberline {6.2.1}Speeding up the gradient descent : Physical approach}{32}}
\abx@aux@page{217}{32}
\citation{tympakianaki2018robust}
\citation{tympakianaki2018robust}
\citation{chau2015overview}
\citation{tympakianaki2018robust}
\citation{tympakianaki2018robust}
\citation{tympakianaki2018robust}
\citation{bennett1982open}
\citation{tympakianaki2015c}
\abx@aux@page{218}{33}
\@writefile{lof}{\defcounter {refsection}{0}\relax }\@writefile{lof}{\contentsline {figure}{\numberline {29}{\ignorespaces Comparison of the standard SPSA with the SPSA with correlation matrix (c-SPSA). A SPSA with the gradient of the convexification term is also shown with the name Hybrid-C-SPSA. Taken from \cite {tympakianaki2018robust}}}{33}}
\newlabel{SpeedingupSPSACorrelation}{{29}{33}}
\abx@aux@page{221}{33}
\abx@aux@page{222}{33}
\@writefile{lof}{\defcounter {refsection}{0}\relax }\@writefile{lof}{\contentsline {figure}{\numberline {30}{\ignorespaces Comparison of different SPSA gradient descent, with or without correlations matrices. What we can see is a high variability in the descent of the standard SPSA but way less variability once the correlation matrices are introduced. Taken from \cite {tympakianaki2018robust}}}{33}}
\newlabel{ReducingnoiseSPSA}{{30}{33}}
\citation{altaf2011simultaneous}
\citation{lynch1998hindcasting}
\citation{boutet2015bottom}
\citation{spall1997neural}
\citation{spall1994nonlinear}
\abx@aux@page{225}{34}
\abx@aux@page{226}{34}
\abx@aux@page{227}{34}
\abx@aux@page{228}{34}
\abx@aux@page{229}{34}
\@writefile{toc}{\defcounter {refsection}{0}\relax }\@writefile{toc}{\contentsline {subsection}{\numberline {6.3}Speeding up the gradient descent : Algorithmic approaches}{34}}
\@writefile{toc}{\defcounter {refsection}{0}\relax }\@writefile{toc}{\contentsline {subsubsection}{\numberline {6.3.1}First order methods}{34}}
\abx@aux@page{230}{34}
\abx@aux@page{231}{34}
\citation{sutskever2013importance}
\citation{zhu2002modified}
\abx@aux@page{232}{35}
\@writefile{lof}{\defcounter {refsection}{0}\relax }\@writefile{lof}{\contentsline {figure}{\numberline {31}{\ignorespaces Example of zigzaging in a valley caused the steepest gradient descent. Taken from wikipedia}}{35}}
\newlabel{reducedzigzaginggradientdescent}{{31}{35}}
\@writefile{toc}{\defcounter {refsection}{0}\relax }\@writefile{toc}{\contentsline {subsubsection}{\numberline {6.3.2} Second order methods}{35}}
\abx@aux@page{233}{35}
\citation{zhu2002modified}
\citation{zhu2002modified}
\citation{bhatnagar2015simultaneous}
\citation{chau2015overview}
\citation{reddy2016improved}
\citation{reddy2016improved}
\citation{reddy2016improved}
\@writefile{lof}{\defcounter {refsection}{0}\relax }\@writefile{lof}{\contentsline {figure}{\numberline {32}{\ignorespaces Example of gradient descent of different SPSA, notably those with diagonal of the hessian estimates. Taken from \cite {zhu2002modified}}}{36}}
\newlabel{Hessianestimatezhu2002}{{32}{36}}
\abx@aux@page{236}{36}
\abx@aux@page{238}{36}
\abx@aux@fnpage{237}{36}
\@writefile{lof}{\defcounter {refsection}{0}\relax }\@writefile{lof}{\contentsline {figure}{\numberline {33}{\ignorespaces Evolution of the cost function with different kinds of SPSA and RDSA algorithm. Taken from \cite {reddy2016improved}}}{36}}
\newlabel{SecondorderRDSA}{{33}{36}}
\citation{chau2015overview}
\citation{tympakianaki2018robust}
\citation{zhu2002modified}
\citation{bhatnagar2015simultaneous}
\citation{spall1994nonlinear}
\citation{bhatnagar2015simultaneous}
\citation{spall1998implementation}
\@writefile{toc}{\defcounter {refsection}{0}\relax }\@writefile{toc}{\contentsline {subsubsection}{\numberline {6.3.3}Regularization and hybrid methods}{37}}
\abx@aux@page{241}{37}
\abx@aux@page{242}{37}
\@writefile{toc}{\defcounter {refsection}{0}\relax }\@writefile{toc}{\contentsline {subsection}{\numberline {6.4}Tuning the SPSA}{37}}
\@writefile{toc}{\defcounter {refsection}{0}\relax }\@writefile{toc}{\contentsline {subsubsection}{\numberline {6.4.1}Standard tuning}{37}}
\abx@aux@page{243}{37}
\abx@aux@page{244}{37}
\abx@aux@page{245}{37}
\abx@aux@page{246}{37}
\abx@aux@page{247}{37}
\citation{chau2015overview}
\citation{wolfe1969convergence}
\citation{spall1998overview}
\citation{wada2013stopping}
\abx@aux@page{248}{38}
\abx@aux@page{249}{38}
\@writefile{toc}{\defcounter {refsection}{0}\relax }\@writefile{toc}{\contentsline {subsection}{\numberline {6.5}Terminating the SPSA}{38}}
\abx@aux@page{250}{38}
\abx@aux@page{251}{38}
\citation{wada2013stopping}
\citation{wada2013stopping}
\citation{hoang2014low}
\citation{boutet2015estimation}
\citation{altaf2011simultaneous}
\citation{boutet2015estimation}
\@writefile{lof}{\defcounter {refsection}{0}\relax }\@writefile{lof}{\contentsline {figure}{\numberline {34}{\ignorespaces Example of convergence rate according to reduction wanted in the cost function. Taken from \cite {wada2013stopping}}}{39}}
\newlabel{Reductioncostfuncwada}{{34}{39}}
\@writefile{toc}{\defcounter {refsection}{0}\relax }\@writefile{toc}{\contentsline {subsection}{\numberline {6.6}SPSA in geophysics}{39}}
\abx@aux@page{254}{39}
\abx@aux@page{255}{39}
\abx@aux@page{256}{39}
\citation{rodriguez2006multiscale}
\abx@aux@page{257}{40}
\abx@aux@page{258}{40}
\@writefile{toc}{\defcounter {refsection}{0}\relax }\@writefile{toc}{\contentsline {part}{III\hspace  {1em}Material and methods}{41}}
\@writefile{toc}{\defcounter {refsection}{0}\relax }\@writefile{toc}{\contentsline {section}{\numberline {7}Campagne UECOCOT 2016}{41}}
\@writefile{toc}{\defcounter {refsection}{0}\relax }\@writefile{toc}{\contentsline {subsection}{\numberline {7.1}General setting of the campaign}{41}}
\@writefile{lof}{\defcounter {refsection}{0}\relax }\@writefile{lof}{\contentsline {figure}{\numberline {35}{\ignorespaces Position of the Ouano lagoon in New Caledonia and position of the ADCP sensor in the lagoon. }}{41}}
\newlabel{PositionOuano}{{35}{41}}
\@writefile{lof}{\defcounter {refsection}{0}\relax }\@writefile{lof}{\contentsline {figure}{\numberline {36}{\ignorespaces Position of the different pressure sensors. Taken from Sous et al. ( in review)}}{41}}
\newlabel{Positionpressuresensor}{{36}{41}}
\@writefile{lof}{\defcounter {refsection}{0}\relax }\@writefile{lof}{\contentsline {figure}{\numberline {37}{\ignorespaces Effect on the wave-breaking on the barreer reef. Also, we see from the composite image the difference in breaking at different times.}}{42}}
\newlabel{Breaking_barreer_difference}{{37}{42}}
\@writefile{lof}{\defcounter {refsection}{0}\relax }\@writefile{lof}{\contentsline {figure}{\numberline {38}{\ignorespaces Diffracting waves in some passes of the lagoon}}{42}}
\newlabel{Diffraction_passes}{{38}{42}}
\@writefile{toc}{\defcounter {refsection}{0}\relax }\@writefile{toc}{\contentsline {subsection}{\numberline {7.2}Temporal evolution of the different quantities}{43}}
\@writefile{lof}{\defcounter {refsection}{0}\relax }\@writefile{lof}{\contentsline {figure}{\numberline {39}{\ignorespaces Evolution of the air temperature in degrees during the campaign}}{43}}
\newlabel{airtempevol}{{39}{43}}
\@writefile{lof}{\defcounter {refsection}{0}\relax }\@writefile{lof}{\contentsline {figure}{\numberline {40}{\ignorespaces Evolution of the mean water level during the campaign}}{43}}
\newlabel{waterlevelevol}{{40}{43}}
\@writefile{toc}{\defcounter {refsection}{0}\relax }\@writefile{toc}{\contentsline {subsection}{\numberline {7.3}Spectral variations of the quantities}{43}}
\@writefile{lof}{\defcounter {refsection}{0}\relax }\@writefile{lof}{\contentsline {figure}{\numberline {41}{\ignorespaces Evolution of the significant wave height during the campaing}}{44}}
\newlabel{waveevol}{{41}{44}}
\@writefile{lof}{\defcounter {refsection}{0}\relax }\@writefile{lof}{\contentsline {figure}{\numberline {42}{\ignorespaces Evolution of the significant wave height for infragravity waves during the campaign}}{44}}
\newlabel{infragravityevol}{{42}{44}}
\@writefile{toc}{\defcounter {refsection}{0}\relax }\@writefile{toc}{\contentsline {subsubsection}{\numberline {7.3.1}Waves}{44}}
\@writefile{lof}{\defcounter {refsection}{0}\relax }\@writefile{lof}{\contentsline {figure}{\numberline {43}{\ignorespaces Evolution of the significant wave height for the swell during the campaign}}{45}}
\newlabel{swellevol}{{43}{45}}
\@writefile{lof}{\defcounter {refsection}{0}\relax }\@writefile{lof}{\contentsline {figure}{\numberline {44}{\ignorespaces Evolution of the atmospheric pressure during the campaign}}{45}}
\newlabel{atmpressevol}{{44}{45}}
\@writefile{toc}{\defcounter {refsection}{0}\relax }\@writefile{toc}{\contentsline {subsubsection}{\numberline {7.3.2}Meteorological data}{45}}
\citation{chevalier2015impact}
\citation{bonneton2007tidal}
\@writefile{lof}{\defcounter {refsection}{0}\relax }\@writefile{lof}{\contentsline {figure}{\numberline {45}{\ignorespaces Evolution of the wind direction during the campaign}}{46}}
\newlabel{evolwinddir}{{45}{46}}
\@writefile{lof}{\defcounter {refsection}{0}\relax }\@writefile{lof}{\contentsline {figure}{\numberline {46}{\ignorespaces Evolution of the wind velocity during the campaign}}{46}}
\newlabel{evolwindintensity}{{46}{46}}
\@writefile{toc}{\defcounter {refsection}{0}\relax }\@writefile{toc}{\contentsline {subsection}{\numberline {7.4}Correlation and impacts}{46}}
\@writefile{toc}{\defcounter {refsection}{0}\relax }\@writefile{toc}{\contentsline {subsection}{\numberline {7.5}What do I wanna see with the data}{46}}
\abx@aux@page{259}{46}
\abx@aux@page{260}{46}
\citation{sous2017circulation}
\@writefile{lof}{\defcounter {refsection}{0}\relax }\@writefile{lof}{\contentsline {figure}{\numberline {47}{\ignorespaces  Spectrum of the water level variations during the campaing, with a blackman filter and smoothed with a gaussian filter with 3 sigma width}}{47}}
\newlabel{spectrummeanwaterlevel}{{47}{47}}
\@writefile{lof}{\defcounter {refsection}{0}\relax }\@writefile{lof}{\contentsline {figure}{\numberline {48}{\ignorespaces Zoom on the 1) Semi-diurnal peak and 2) diurnal peak, where we can clearly distinguish the M2,S2 and O1, K1 contributions}}{47}}
\newlabel{Distinguishingtidaldiurnal}{{48}{47}}
\@writefile{toc}{\defcounter {refsection}{0}\relax }\@writefile{toc}{\contentsline {subsubsection}{\numberline {7.5.1}Observations for the M2/S2 tide}{47}}
\@writefile{lof}{\defcounter {refsection}{0}\relax }\@writefile{lof}{\contentsline {figure}{\numberline {49}{\ignorespaces Offshore waves spectrum from the WW3 model and the S4 sensor.}}{48}}
\newlabel{offshorewavespectrum}{{49}{48}}
\@writefile{lof}{\defcounter {refsection}{0}\relax }\@writefile{lof}{\contentsline {figure}{\numberline {50}{\ignorespaces Spectrum of the swell wave significant height in the lagoon, filtered with a blackman filter and smoothed with a gaussian filter with three sigma.}}{48}}
\newlabel{swellspectrumlagoon}{{50}{48}}
\@writefile{toc}{\defcounter {refsection}{0}\relax }\@writefile{toc}{\contentsline {subsubsection}{\numberline {7.5.2}Observations for the K1 tide}{48}}
\abx@aux@fnpage{261}{48}
\citation{zimmerman1981dynamics}
\citation{zimmerman1981dynamics}
\citation{zimmerman1981dynamics}
\@writefile{lof}{\defcounter {refsection}{0}\relax }\@writefile{lof}{\contentsline {figure}{\numberline {51}{\ignorespaces Spectrum of the very low frequency waves significant height in the lagoon, filtered with a blackman filter and smoothed with a gaussian filter with three sigma.}}{49}}
\newlabel{VLFspectrumlagoon}{{51}{49}}
\@writefile{lof}{\defcounter {refsection}{0}\relax }\@writefile{lof}{\contentsline {figure}{\numberline {52}{\ignorespaces Spectrum of the wind velocity during the campaign, filtered with a blackman filter and smoothed with a gaussian filter with 3 sigmas}}{49}}
\newlabel{windvelspectrum}{{52}{49}}
\abx@aux@page{262}{49}
\@writefile{lof}{\defcounter {refsection}{0}\relax }\@writefile{lof}{\contentsline {figure}{\numberline {53}{\ignorespaces Spectrum of the wind direction during the campaign, filtered with a blackman filter and smoothed with a gaussian filter with 3 sigmas}}{50}}
\newlabel{winddirspectrum}{{53}{50}}
\@writefile{lof}{\defcounter {refsection}{0}\relax }\@writefile{lof}{\contentsline {figure}{\numberline {54}{\ignorespaces Spectrum of the atmospheric pressure during the campaign, filtered with a blackman filter and smoothed with a gaussian filter with 3 sigmas}}{50}}
\newlabel{atmpressspectrum}{{54}{50}}
\@writefile{lof}{\defcounter {refsection}{0}\relax }\@writefile{lof}{\contentsline {figure}{\numberline {55}{\ignorespaces Spectrum of the air temperature during the campaing, filtered with a blackman filter and smoothed with a gaussian filter with 3 sigmas}}{51}}
\newlabel{airtempspectrum}{{55}{51}}
\newlabel{System1Dpass}{{29}{51}}
\newlabel{Evolutionvelocitypass}{{31}{51}}
\newlabel{Modified1Dpass}{{32}{51}}
\newlabel{depthpassparametrization}{{33}{51}}
\citation{obinson1983tidally}
\@writefile{lof}{\defcounter {refsection}{0}\relax }\@writefile{lof}{\contentsline {figure}{\numberline {56}{\ignorespaces Scheme of generation of tidal residual in a cul-de-sac, taken from \cite {zimmerman1981dynamics}. In the case of a pass, the lower velocity side would be the oceanic one and the higher velocity side the lagoon one. Therefore, we expect net flow residual on the side of the passes and net ebb residual on the center on this pass. The position of the sensors would therefore have an important impact.}}{52}}
\newlabel{Currentresidualpass}{{56}{52}}
\newlabel{Passesverticalslice}{{7.5.2}{53}}
\@writefile{lof}{\defcounter {refsection}{0}\relax }\@writefile{lof}{\contentsline {figure}{\numberline {57}{\ignorespaces Scheme of an entering current in a lagoon pass. }}{53}}
\@writefile{toc}{\defcounter {refsection}{0}\relax }\@writefile{toc}{\contentsline {subsection}{\numberline {7.6}Differences of elevation at N'Digoro}{54}}
\@writefile{toc}{\defcounter {refsection}{0}\relax }\@writefile{toc}{\contentsline {subsection}{\numberline {7.7}Weak elevation at the barrier reef}{54}}
\newlabel{Venturieffectreefsystem}{{35}{54}}
\newlabel{Venturieffect developedsystem}{{37}{54}}
\newlabel{Venturieffectconstantsystem}{{39}{54}}
\newlabel{VenturieffectM2system}{{40}{54}}
\newlabel{VenturieffectEquationselevation}{{41}{55}}
\newlabel{SimpleHelmholtzsemidiurnal}{{43}{55}}
\newlabel{Helmholtzsplittedsemidiurnal}{{44}{55}}
\newlabel{SimplifiedHelmholtzequation}{{45}{55}}
\citation{sous2017circulation}
\newlabel{DeltaetaM2}{{46}{56}}
\@writefile{toc}{\defcounter {refsection}{0}\relax }\@writefile{toc}{\contentsline {subsection}{\numberline {7.8}Bottom boundary layers}{56}}
\abx@aux@page{265}{56}
\@writefile{toc}{\defcounter {refsection}{0}\relax }\@writefile{toc}{\contentsline {subsection}{\numberline {7.9}Attack plan}{56}}
\@writefile{toc}{\defcounter {refsection}{0}\relax }\@writefile{toc}{\contentsline {subsection}{\numberline {7.10}Estimation of tidal and wave energy}{57}}
\citation{lefevre2010weather}
\abx@aux@fnpage{266}{58}
\@writefile{toc}{\defcounter {refsection}{0}\relax }\@writefile{toc}{\contentsline {section}{\numberline {8}Numerical models}{59}}
\@writefile{toc}{\defcounter {refsection}{0}\relax }\@writefile{toc}{\contentsline {subsection}{\numberline {8.1}Mod\IeC {\`e}le CROCO}{59}}
\citation{kabbaj1980nonlinear}
\citation{devenon1990optimal}
\citation{le1998hydrodynamic}
\@writefile{toc}{\defcounter {refsection}{0}\relax }\@writefile{toc}{\contentsline {subsection}{\numberline {8.2}Mod\IeC {\`e}le Serpent de Mer}{60}}
\abx@aux@page{267}{60}
\abx@aux@page{268}{60}
\abx@aux@page{269}{60}
\citation{egbert2002efficient}
\citation{erofeeva2018tpxo9}
\citation{egbert2002efficient}
\citation{devenon1990optimal}
\citation{le1998hydrodynamic}
\citation{egbert2002efficient}
\citation{kabbaj1980nonlinear}
\abx@aux@page{270}{61}
\abx@aux@page{271}{61}
\abx@aux@page{272}{61}
\abx@aux@page{273}{61}
\abx@aux@page{274}{61}
\abx@aux@page{275}{61}
\@writefile{toc}{\defcounter {refsection}{0}\relax }\@writefile{toc}{\contentsline {section}{\numberline {9}Development of the boundary conditions problem}{61}}
\newlabel{Rossbynumbertide}{{47}{61}}
\citation{chevalier2015impact}
\citation{chevalier2015impact}
\citation{kabbaj1980nonlinear}
\citation{dyakonova2018bottom}
\citation{fringer2019future}
\citation{lentz2016characteristics}
\citation{godin1994numerical}
\abx@aux@page{276}{62}
\newlabel{StVenantperturbed}{{48}{62}}
\abx@aux@page{277}{62}
\abx@aux@page{278}{62}
\abx@aux@page{279}{62}
\abx@aux@page{280}{63}
\abx@aux@page{281}{63}
\abx@aux@page{282}{63}
\abx@aux@page{283}{63}
\newlabel{1rstorderperturbedStVenant}{{49}{63}}
\newlabel{1rstorderperturbedStVenantoperators}{{50}{63}}
\citation{james2002modelling}
\citation{taillandier2004controlling}
\citation{devenon1990optimal}
\citation{lellouche1998data}
\citation{spall1998overview}
\citation{boutet2015bottom}
\citation{altaf2011simultaneous}
\@writefile{toc}{\defcounter {refsection}{0}\relax }\@writefile{toc}{\contentsline {part}{IV\hspace  {1em}Results}{65}}
\@writefile{toc}{\defcounter {refsection}{0}\relax }\@writefile{toc}{\contentsline {section}{\numberline {10}Boundary conditions determination with the SPSA algorithm}{65}}
\@writefile{toc}{\defcounter {refsection}{0}\relax }\@writefile{toc}{\contentsline {subsection}{\numberline {10.1}Introduction}{65}}
\abx@aux@page{284}{65}
\abx@aux@page{285}{65}
\abx@aux@page{286}{65}
\abx@aux@page{287}{65}
\abx@aux@page{288}{65}
\abx@aux@page{289}{65}
\abx@aux@page{290}{65}
\citation{sous2017circulation}
\citation{chevalier2015impact}
\citation{sous2017circulation}
\citation{chevalier2015impact}
\citation{sous2017circulation}
\citation{ouillon2010circulation}
\citation{jouon2006calculations}
\citation{devenon1990optimal}
\citation{le1994spectroscopy}
\abx@aux@page{291}{66}
\@writefile{toc}{\defcounter {refsection}{0}\relax }\@writefile{toc}{\contentsline {subsection}{\numberline {10.2}Zone of study and parameters}{66}}
\abx@aux@page{292}{66}
\abx@aux@page{293}{66}
\abx@aux@page{294}{66}
\abx@aux@page{295}{66}
\abx@aux@page{296}{66}
\abx@aux@page{297}{66}
\@writefile{lof}{\defcounter {refsection}{0}\relax }\@writefile{lof}{\contentsline {figure}{\numberline {58}{\ignorespaces Bathymetry of the studied zone in the upper image. The different boundaries are indicated by a colorscale. Depth over 50 meters are mainly found outside the lagoon. In the lower graphic, we present the boundary conditions for the amplitude and phase of the M2 tide. The color rectangles indicate the position of the different boundaries.}}{67}}
\newlabel{ugly_lagoon}{{58}{67}}
\@writefile{toc}{\defcounter {refsection}{0}\relax }\@writefile{toc}{\contentsline {subsection}{\numberline {10.3}Derivation of the discrete model}{67}}
\abx@aux@page{298}{67}
\abx@aux@page{299}{67}
\newlabel{Initial system}{{52}{67}}
\citation{chevalier2015impact}
\citation{spall1998overview}
\@writefile{lof}{\defcounter {refsection}{0}\relax }\@writefile{lof}{\contentsline {figure}{\numberline {59}{\ignorespaces Differences in phase (left) and amplitude (right) in percentage of the M2 component of the tide determined in the Ouano lagoon by the CROCO model and the Serpent de Mer model, with the same boundary conditions}}{68}}
\newlabel{fig_CROCO}{{59}{68}}
\newlabel{Helmholtz equation}{{53}{68}}
\abx@aux@page{300}{68}
\@writefile{toc}{\defcounter {refsection}{0}\relax }\@writefile{toc}{\contentsline {subsection}{\numberline {10.4}Gradient descent algorithm}{68}}
\abx@aux@page{301}{68}
\citation{sasaki1970numerical}
\citation{blum2009data}
\citation{spall1998overview}
\citation{sutskever2013importance}
\citation{sutskever2013importance}
\newlabel{Cost_func}{{54}{69}}
\abx@aux@page{302}{69}
\abx@aux@page{303}{69}
\newlabel{Gradient descent}{{55}{69}}
\abx@aux@page{304}{69}
\abx@aux@page{305}{69}
\newlabel{Momentum_grad_desc}{{56}{69}}
\abx@aux@page{306}{69}
\citation{armijo1966minimization}
\newlabel{step_size}{{57}{70}}
\abx@aux@page{307}{70}
\@writefile{lot}{\defcounter {refsection}{0}\relax }\@writefile{lot}{\contentsline {table}{\numberline {1}{\ignorespaces Numerical parameters for the gradient descent algorithm}}{70}}
\newlabel{Table_SPSA}{{1}{70}}
\@writefile{toc}{\defcounter {refsection}{0}\relax }\@writefile{toc}{\contentsline {subsection}{\numberline {10.5}Successive approximations}{70}}
\newlabel{complex_boundary}{{58}{70}}
\newlabel{Approximation of parameters}{{59}{71}}
\@writefile{lof}{\defcounter {refsection}{0}\relax }\@writefile{lof}{\contentsline {figure}{\numberline {60}{\ignorespaces Example of the first stage of boundary conditions identification. The black line here represents the boundary conditions that we are trying to determine. The red dots and black crosses represent the positions of the nodes for the splines interpolation. Here the red curve represents the spline approximation with only three nodes, while the green curves represents the approximation with five nodes. We begin by fitting a three nodes interpolation (a). Then we use this three nodes curve to generate a raw approximation with five nodes (b). Then we adapt the values of the five nodes to fit better the boundary conditions with the green curve (c).}}{71}}
\newlabel{illu}{{60}{71}}
\@writefile{toc}{\defcounter {refsection}{0}\relax }\@writefile{toc}{\contentsline {subsection}{\numberline {10.6}Twin experiments}{72}}
\@writefile{toc}{\defcounter {refsection}{0}\relax }\@writefile{toc}{\contentsline {subsection}{\numberline {10.7} Parameters identification methods}{72}}
\@writefile{lot}{\defcounter {refsection}{0}\relax }\@writefile{lot}{\contentsline {table}{\numberline {2}{\ignorespaces Numerical parameters for the different methods. We refer to those parameters as "NA" ( Not Applicable) when the method mentioned do not use the procedure involving those parameters.}}{73}}
\newlabel{Table_coefficients}{{2}{73}}
\@writefile{toc}{\defcounter {refsection}{0}\relax }\@writefile{toc}{\contentsline {subsection}{\numberline {10.8}Results obtained with successive approximations}{73}}
\@writefile{toc}{\defcounter {refsection}{0}\relax }\@writefile{toc}{\contentsline {subsection}{\numberline {10.9}Results obtained with the other two methods}{73}}
\@writefile{lof}{\defcounter {refsection}{0}\relax }\@writefile{lof}{\contentsline {figure}{\numberline {61}{\ignorespaces Comparison of the initial boundary conditions (filled red lines) and the ones determined by the successive approximation method and the SPSA, at two different stages of approximation. The green dotted lines represent the boundary conditions determined at the second stage of approximation, and the blue crosses the position of the nodes during that stage. The blue semi-dotted lines represent the boundary conditions determined at the fourth stage of approximation, and the orange crosses the position of the nodes during that stage. In the upper plot we have the boundary conditions for amplitude and in the lower plot the boundary conditions for phase.}}{74}}
\newlabel{Comparison_output_SPSA_no_noise_bdr_index}{{61}{74}}
\@writefile{lof}{\defcounter {refsection}{0}\relax }\@writefile{lof}{\contentsline {figure}{\numberline {62}{\ignorespaces Amplitude outputs of the model in the Ouano lagoon for boundary conditions provided from a) The initial boundary conditions b) The boundary conditions determined by the successive approximations method.}}{74}}
\newlabel{Output_SPM_amp_succ_approx}{{62}{74}}
\@writefile{lof}{\defcounter {refsection}{0}\relax }\@writefile{lof}{\contentsline {figure}{\numberline {63}{\ignorespaces Phase outputs of the model in the Ouano lagoon for boundary conditions provided from a) The initial boundary conditions b) The boundary conditions determined by the successive approximations method.}}{74}}
\newlabel{Output_SPM_phase_succ_approx}{{63}{74}}
\@writefile{lof}{\defcounter {refsection}{0}\relax }\@writefile{lof}{\contentsline {figure}{\numberline {64}{\ignorespaces Comparison of the reference boundary conditions ( in dotted blue) and the ones determined by the high-order approximation ( in green) or the no approximation method ( in orange). In the upper plot we have the boundary conditions for amplitude and in the lower plot the boundary conditions for phase.}}{75}}
\newlabel{Comparison_output_SPSA_other_methods}{{64}{75}}
\@writefile{toc}{\defcounter {refsection}{0}\relax }\@writefile{toc}{\contentsline {subsection}{\numberline {10.10}Comparison of the three methods during the identification}{75}}
\@writefile{lof}{\defcounter {refsection}{0}\relax }\@writefile{lof}{\contentsline {figure}{\numberline {65}{\ignorespaces Evolution of the cost function for the different methods. The filled lines correspond to the mean values observed for ten runs, and the shaded zones to two standard deviations around this value. The blue line represents the successive approximation method, the orange one the high-order approximation method and the green one the no approximation method. The green crosses represent the shift between optimization of the amplitude and optimization of the phase. The red dots represent iteration at which we increase the number of coefficients used in the approximation.}}{76}}
\newlabel{Cost_func_no_noise}{{65}{76}}
\@writefile{lof}{\defcounter {refsection}{0}\relax }\@writefile{lof}{\contentsline {figure}{\numberline {66}{\ignorespaces Variation of the boundary conditions determined for different levels of subsampling in the pseudo data.}}{76}}
\newlabel{Boundary subsampling}{{66}{76}}
\@writefile{toc}{\defcounter {refsection}{0}\relax }\@writefile{toc}{\contentsline {subsection}{\numberline {10.11}Noisy and subsampled pseudodata}{76}}
\citation{altaf2011simultaneous}
\citation{boutet2015bottom}
\citation{hoang2011efficiency}
\@writefile{lof}{\defcounter {refsection}{0}\relax }\@writefile{lof}{\contentsline {figure}{\numberline {67}{\ignorespaces Variation of the boundary conditions determined for different levels of noise in the pseudo data.}}{77}}
\newlabel{Boundary noise}{{67}{77}}
\@writefile{toc}{\defcounter {refsection}{0}\relax }\@writefile{toc}{\contentsline {subsection}{\numberline {10.12}Choice of the function\IeC {\textquoteright }s shape}{77}}
\abx@aux@page{308}{77}
\abx@aux@page{309}{77}
\abx@aux@page{310}{77}
\citation{devenon1990optimal}
\citation{unser1999splines}
\citation{sasaki1970numerical}
\citation{thevenaz1998pyramid}
\citation{jahns1966}
\citation{spall1998overview}
\@writefile{toc}{\defcounter {refsection}{0}\relax }\@writefile{toc}{\contentsline {subsection}{\numberline {10.13}Impact of sampling}{78}}
\abx@aux@page{311}{78}
\abx@aux@page{312}{78}
\abx@aux@page{313}{78}
\citation{zhu2002modified}
\citation{wada2013stopping}
\@writefile{toc}{\defcounter {refsection}{0}\relax }\@writefile{toc}{\contentsline {subsection}{\numberline {10.14}Practical implementation}{79}}
\abx@aux@page{314}{79}
\abx@aux@page{315}{79}
\abx@aux@page{316}{79}
\abx@aux@page{317}{79}
\abx@aux@page{318}{79}
\@writefile{toc}{\defcounter {refsection}{0}\relax }\@writefile{toc}{\contentsline {subsubsection}{\numberline {10.14.1}Further directions }{79}}
\citation{spall1998overview}
\citation{boutet2015bottom}
\abx@aux@page{319}{80}
\abx@aux@page{320}{80}
\@writefile{toc}{\defcounter {refsection}{0}\relax }\@writefile{toc}{\contentsline {subsection}{\numberline {10.15}Conclusions}{80}}
\citation{chevalier2015impact}
\citation{jones2008modification}
\citation{chevalier2015impact}
\citation{jones2008modification}
\@writefile{toc}{\defcounter {refsection}{0}\relax }\@writefile{toc}{\contentsline {section}{\numberline {11}Cross-reef flux estimates}{81}}
\@writefile{toc}{\defcounter {refsection}{0}\relax }\@writefile{toc}{\contentsline {section}{\numberline {12}Non-linear interactions between tides and cross-reef fluxes}{81}}
\abx@aux@page{321}{81}
\abx@aux@page{322}{81}
\abx@aux@page{323}{81}
\citation{chevalier2015impact}
\@writefile{toc}{\defcounter {refsection}{0}\relax }\@writefile{toc}{\contentsline {subsection}{\numberline {12.1}Coupling in the St-Venant equations}{82}}
\abx@aux@page{324}{82}
\newlabel{StVenantjones2008}{{60}{82}}
\newlabel{bottomfrictionsecondorder}{{61}{82}}
\abx@aux@page{325}{82}
\newlabel{forcingwavebreaking}{{62}{82}}
\newlabel{StVenantwavebreaking}{{63}{82}}
\newlabel{momentumequationwavebreaking}{{64}{83}}
\@writefile{toc}{\defcounter {refsection}{0}\relax }\@writefile{toc}{\contentsline {subsection}{\numberline {12.2}Analytical developments}{83}}
\newlabel{developmentsolutionM2constant}{{66}{83}}
\newlabel{constanttermstvenant}{{67}{83}}
\citation{zimmerman1978topographic}
\newlabel{constanttermrhsstvenant}{{68}{84}}
\abx@aux@page{326}{84}
\newlabel{M2termrhsstvenant}{{69}{84}}
\@writefile{toc}{\defcounter {refsection}{0}\relax }\@writefile{toc}{\contentsline {subsection}{\numberline {12.3}Development of the friction terms}{84}}
\@writefile{toc}{\defcounter {refsection}{0}\relax }\@writefile{toc}{\contentsline {subsection}{\numberline {12.4}Experiments with CROCO}{84}}
\@writefile{toc}{\defcounter {refsection}{0}\relax }\@writefile{toc}{\contentsline {subsection}{\numberline {12.5}Stuff I should try}{84}}
\@writefile{toc}{\defcounter {refsection}{0}\relax }\@writefile{toc}{\contentsline {part}{V\hspace  {1em}Discussion}{86}}
\@writefile{toc}{\defcounter {refsection}{0}\relax }\@writefile{toc}{\contentsline {part}{VI\hspace  {1em}Conclusion}{87}}
\abx@aux@page{327}{88}
\abx@aux@page{328}{88}
\abx@aux@page{329}{88}
\abx@aux@page{330}{88}
\abx@aux@page{331}{88}
\abx@aux@page{332}{88}
\abx@aux@page{333}{88}
\abx@aux@page{334}{88}
\abx@aux@page{335}{88}
\abx@aux@page{336}{88}
\abx@aux@page{337}{88}
\abx@aux@page{338}{88}
\abx@aux@page{339}{88}
\abx@aux@page{340}{88}
\abx@aux@page{341}{88}
\abx@aux@page{342}{88}
\abx@aux@page{343}{89}
\abx@aux@page{344}{89}
\abx@aux@page{345}{89}
\abx@aux@page{346}{89}
\abx@aux@page{347}{89}
\abx@aux@page{348}{89}
\abx@aux@page{349}{89}
\abx@aux@page{350}{89}
\abx@aux@page{351}{89}
\abx@aux@page{352}{89}
\abx@aux@page{353}{89}
\abx@aux@page{354}{89}
\abx@aux@page{355}{89}
\abx@aux@page{356}{89}
\abx@aux@page{357}{89}
\abx@aux@page{358}{89}
\abx@aux@page{359}{89}
\abx@aux@page{360}{90}
\abx@aux@page{361}{90}
\abx@aux@page{362}{90}
\abx@aux@page{363}{90}
\abx@aux@page{364}{90}
\abx@aux@page{365}{90}
\abx@aux@page{366}{90}
\abx@aux@page{367}{90}
\abx@aux@page{368}{90}
\abx@aux@page{369}{90}
\abx@aux@page{370}{90}
\abx@aux@page{371}{90}
\abx@aux@page{372}{90}
\abx@aux@page{373}{90}
\abx@aux@page{374}{90}
\abx@aux@page{375}{90}
\abx@aux@page{376}{90}
\abx@aux@page{377}{91}
\abx@aux@page{378}{91}
\abx@aux@page{379}{91}
\abx@aux@page{380}{91}
\abx@aux@page{381}{91}
\abx@aux@page{382}{91}
\abx@aux@page{383}{91}
\abx@aux@page{384}{91}
\abx@aux@page{385}{91}
\abx@aux@page{386}{91}
\abx@aux@page{387}{91}
\abx@aux@page{388}{91}
\abx@aux@page{389}{91}
\abx@aux@page{390}{91}
\abx@aux@page{391}{91}
\abx@aux@page{392}{91}
\abx@aux@page{393}{91}
\abx@aux@page{394}{92}
\abx@aux@page{395}{92}
\abx@aux@page{396}{92}
\abx@aux@page{397}{92}
\abx@aux@page{398}{92}
\abx@aux@page{399}{92}
\abx@aux@page{400}{92}
\abx@aux@page{401}{92}
\abx@aux@page{402}{92}
\abx@aux@page{403}{92}
\abx@aux@page{404}{92}
\abx@aux@page{405}{92}
\abx@aux@page{406}{92}
\abx@aux@page{407}{92}
\abx@aux@page{408}{92}
\abx@aux@page{409}{92}
\abx@aux@page{410}{93}
\abx@aux@page{411}{93}
\abx@aux@page{412}{93}
\abx@aux@page{413}{93}
\abx@aux@page{414}{93}
\abx@aux@page{415}{93}
\abx@aux@page{416}{93}
\abx@aux@page{417}{93}
\abx@aux@page{418}{93}
\abx@aux@page{419}{93}
\abx@aux@page{420}{93}
\abx@aux@page{421}{93}
\abx@aux@page{422}{93}
\abx@aux@page{423}{93}
\abx@aux@page{424}{93}
\abx@aux@page{425}{93}
\abx@aux@page{426}{93}
\abx@aux@page{427}{94}
\abx@aux@page{428}{94}
\abx@aux@page{429}{94}
\abx@aux@page{430}{94}
\abx@aux@page{431}{94}
\abx@aux@page{432}{94}
\abx@aux@page{433}{94}
\abx@aux@page{434}{94}
\abx@aux@page{435}{94}
\abx@aux@page{436}{94}
\abx@aux@page{437}{94}
\abx@aux@page{438}{94}
\abx@aux@page{439}{94}
